%TF.GenerationSoftware,KiCad,Pcbnew,5.1.10*%
%TF.CreationDate,2021-11-14T19:08:44-06:00*%
%TF.ProjectId,keyboard,6b657962-6f61-4726-942e-6b696361645f,rev?*%
%TF.SameCoordinates,Original*%
%TF.FileFunction,Copper,L4,Bot*%
%TF.FilePolarity,Positive*%
%FSLAX46Y46*%
G04 Gerber Fmt 4.6, Leading zero omitted, Abs format (unit mm)*
G04 Created by KiCad (PCBNEW 5.1.10) date 2021-11-14 19:08:44*
%MOMM*%
%LPD*%
G01*
G04 APERTURE LIST*
%TA.AperFunction,ComponentPad*%
%ADD10C,2.200000*%
%TD*%
%TA.AperFunction,ComponentPad*%
%ADD11O,0.900000X1.700000*%
%TD*%
%TA.AperFunction,ComponentPad*%
%ADD12O,0.900000X2.400000*%
%TD*%
%TA.AperFunction,ComponentPad*%
%ADD13C,0.700000*%
%TD*%
%TA.AperFunction,ComponentPad*%
%ADD14O,2.400000X2.400000*%
%TD*%
%TA.AperFunction,ComponentPad*%
%ADD15R,2.400000X2.400000*%
%TD*%
%TA.AperFunction,ComponentPad*%
%ADD16C,2.540000*%
%TD*%
%TA.AperFunction,ViaPad*%
%ADD17C,0.800000*%
%TD*%
%TA.AperFunction,Conductor*%
%ADD18C,0.250000*%
%TD*%
G04 APERTURE END LIST*
D10*
%TO.P,SW67,2*%
%TO.N,Net-(D66-Pad2)*%
X282110000Y-134316000D03*
%TO.P,SW67,1*%
%TO.N,Col15*%
X288460000Y-131776000D03*
%TD*%
%TO.P,Enter1,2*%
%TO.N,Net-(D62-Pad2)*%
X272590000Y-153366000D03*
%TO.P,Enter1,1*%
%TO.N,Col14*%
X278940000Y-150826000D03*
%TD*%
%TO.P,SW34,2*%
%TO.N,Net-(D38-Pad2)*%
X148750000Y-115256000D03*
%TO.P,SW34,1*%
%TO.N,Col8*%
X155100000Y-112716000D03*
%TD*%
%TO.P,SW19,2*%
%TO.N,Net-(D18-Pad2)*%
X91575000Y-153365000D03*
%TO.P,SW19,1*%
%TO.N,Col5*%
X97925000Y-150825000D03*
%TD*%
%TO.P,SW10,2*%
%TO.N,Net-(D9-Pad2)*%
X53510000Y-172416000D03*
%TO.P,SW10,1*%
%TO.N,Col3*%
X59860000Y-169876000D03*
%TD*%
D11*
%TO.P,J1,S1*%
%TO.N,Net-(C1-Pad2)*%
X146370000Y-75510000D03*
X155020000Y-75510000D03*
D12*
X146370000Y-78890000D03*
X155020000Y-78890000D03*
D13*
%TO.P,J1,B6*%
%TO.N,Net-(J1-PadA6)*%
X150270000Y-78520000D03*
%TO.P,J1,B1*%
%TO.N,GND*%
X147720000Y-78520000D03*
%TO.P,J1,B4*%
%TO.N,+5V*%
X148570000Y-78520000D03*
%TO.P,J1,B5*%
%TO.N,Net-(J1-PadB5)*%
X149420000Y-78520000D03*
%TO.P,J1,B12*%
%TO.N,GND*%
X153670000Y-78520000D03*
%TO.P,J1,B8*%
%TO.N,N/C*%
X151970000Y-78520000D03*
%TO.P,J1,B7*%
%TO.N,Net-(J1-PadA7)*%
X151120000Y-78520000D03*
%TO.P,J1,B9*%
%TO.N,+5V*%
X152820000Y-78520000D03*
%TO.P,J1,A12*%
%TO.N,GND*%
X147720000Y-79870000D03*
%TO.P,J1,A9*%
%TO.N,+5V*%
X148570000Y-79870000D03*
%TO.P,J1,A8*%
%TO.N,N/C*%
X149420000Y-79870000D03*
%TO.P,J1,A7*%
%TO.N,Net-(J1-PadA7)*%
X150270000Y-79870000D03*
%TO.P,J1,A6*%
%TO.N,Net-(J1-PadA6)*%
X151120000Y-79870000D03*
%TO.P,J1,A5*%
%TO.N,Net-(J1-PadA5)*%
X151970000Y-79870000D03*
%TO.P,J1,A4*%
%TO.N,+5V*%
X152820000Y-79870000D03*
%TO.P,J1,A1*%
%TO.N,GND*%
X153670000Y-79870000D03*
%TD*%
D14*
%TO.P,D28,2*%
%TO.N,Net-(D28-Pad2)*%
X131826000Y-87884000D03*
D15*
%TO.P,D28,1*%
%TO.N,Row4*%
X131826000Y-91694000D03*
%TD*%
D10*
%TO.P,SW57,2*%
%TO.N,Net-(D56-Pad2)*%
X272590000Y-115266000D03*
%TO.P,SW57,1*%
%TO.N,Col14*%
X278940000Y-112726000D03*
%TD*%
D14*
%TO.P,D41,2*%
%TO.N,Net-(D41-Pad2)*%
X177038000Y-99822000D03*
D15*
%TO.P,D41,1*%
%TO.N,Row4*%
X177038000Y-96012000D03*
%TD*%
D10*
%TO.P,SW32,2*%
%TO.N,Net-(D31-Pad2)*%
X148770000Y-153366000D03*
%TO.P,SW32,1*%
%TO.N,Col8*%
X155120000Y-150826000D03*
%TD*%
D16*
%TO.P,SW38,1*%
%TO.N,Col8*%
X150000000Y-188946000D03*
%TO.P,SW38,2*%
%TO.N,Net-(D37-Pad2)*%
X156350000Y-191486000D03*
%TD*%
D14*
%TO.P,D53,2*%
%TO.N,Net-(D53-Pad2)*%
X207270000Y-99820000D03*
D15*
%TO.P,D53,1*%
%TO.N,Row4*%
X207270000Y-96010000D03*
%TD*%
D14*
%TO.P,D62,2*%
%TO.N,Net-(D62-Pad2)*%
X224536000Y-87884000D03*
D15*
%TO.P,D62,1*%
%TO.N,Row3*%
X224536000Y-91694000D03*
%TD*%
D14*
%TO.P,D52,2*%
%TO.N,Net-(D52-Pad2)*%
X211600000Y-87890000D03*
D15*
%TO.P,D52,1*%
%TO.N,Row3*%
X211600000Y-91700000D03*
%TD*%
D14*
%TO.P,D30,2*%
%TO.N,Net-(D30-Pad2)*%
X140462000Y-99822000D03*
D15*
%TO.P,D30,1*%
%TO.N,Row2*%
X140462000Y-96012000D03*
%TD*%
D14*
%TO.P,D10,2*%
%TO.N,Net-(D10-Pad2)*%
X88646000Y-87884000D03*
D15*
%TO.P,D10,1*%
%TO.N,Row5*%
X88646000Y-91694000D03*
%TD*%
D14*
%TO.P,D11,2*%
%TO.N,Net-(D11-Pad2)*%
X88646000Y-99822000D03*
D15*
%TO.P,D11,1*%
%TO.N,Row1*%
X88646000Y-96012000D03*
%TD*%
D14*
%TO.P,D22,2*%
%TO.N,Net-(D22-Pad2)*%
X123190000Y-87884000D03*
D15*
%TO.P,D22,1*%
%TO.N,Row2*%
X123190000Y-91694000D03*
%TD*%
D14*
%TO.P,D33,2*%
%TO.N,Net-(D33-Pad2)*%
X136144000Y-87884000D03*
D15*
%TO.P,D33,1*%
%TO.N,Row1*%
X136144000Y-91694000D03*
%TD*%
D10*
%TO.P,SW5,2*%
%TO.N,Net-(D4-Pad2)*%
X24980000Y-172426000D03*
%TO.P,SW5,1*%
%TO.N,Col1*%
X31330000Y-169886000D03*
%TD*%
D14*
%TO.P,D9,2*%
%TO.N,Net-(D9-Pad2)*%
X97282000Y-87884000D03*
D15*
%TO.P,D9,1*%
%TO.N,Row4*%
X97282000Y-91694000D03*
%TD*%
D14*
%TO.P,D20,2*%
%TO.N,Net-(D20-Pad2)*%
X110236000Y-87884000D03*
D15*
%TO.P,D20,1*%
%TO.N,Row5*%
X110236000Y-91694000D03*
%TD*%
D14*
%TO.P,D19,2*%
%TO.N,Net-(D19-Pad2)*%
X118872000Y-87884000D03*
D15*
%TO.P,D19,1*%
%TO.N,Row4*%
X118872000Y-91694000D03*
%TD*%
D14*
%TO.P,D24,2*%
%TO.N,Net-(D24-Pad2)*%
X127508000Y-87884000D03*
D15*
%TO.P,D24,1*%
%TO.N,Row4*%
X127508000Y-91694000D03*
%TD*%
D14*
%TO.P,D27,2*%
%TO.N,Net-(D27-Pad2)*%
X131826000Y-99822000D03*
D15*
%TO.P,D27,1*%
%TO.N,Row3*%
X131826000Y-96012000D03*
%TD*%
D10*
%TO.P,SW29,2*%
%TO.N,Net-(D28-Pad2)*%
X129710000Y-172436000D03*
%TO.P,SW29,1*%
%TO.N,Col7*%
X136060000Y-169896000D03*
%TD*%
D14*
%TO.P,D1,2*%
%TO.N,Net-(D1-Pad2)*%
X84328000Y-87884000D03*
D15*
%TO.P,D1,1*%
%TO.N,Row1*%
X84328000Y-91694000D03*
%TD*%
D10*
%TO.P,SW2,2*%
%TO.N,Net-(D1-Pad2)*%
X15410000Y-115256000D03*
%TO.P,SW2,1*%
%TO.N,Col1*%
X21760000Y-112716000D03*
%TD*%
D14*
%TO.P,D21,2*%
%TO.N,Net-(D21-Pad2)*%
X101854000Y-87884000D03*
D15*
%TO.P,D21,1*%
%TO.N,Row1*%
X101854000Y-91694000D03*
%TD*%
D14*
%TO.P,D5,2*%
%TO.N,Net-(D5-Pad2)*%
X80000000Y-99810000D03*
D15*
%TO.P,D5,1*%
%TO.N,Row5*%
X80000000Y-96000000D03*
%TD*%
D14*
%TO.P,D32,2*%
%TO.N,Net-(D32-Pad2)*%
X164084000Y-87884000D03*
D15*
%TO.P,D32,1*%
%TO.N,Row4*%
X164084000Y-91694000D03*
%TD*%
D14*
%TO.P,D45,2*%
%TO.N,Net-(D45-Pad2)*%
X185700000Y-87890000D03*
D15*
%TO.P,D45,1*%
%TO.N,Row4*%
X185700000Y-91700000D03*
%TD*%
D14*
%TO.P,D65,2*%
%TO.N,Row4*%
X71374000Y-87884000D03*
D15*
%TO.P,D65,1*%
%TO.N,Net-(D65-Pad1)*%
X71374000Y-91694000D03*
%TD*%
D14*
%TO.P,D36,2*%
%TO.N,Net-(D36-Pad2)*%
X177038000Y-87884000D03*
D15*
%TO.P,D36,1*%
%TO.N,Row4*%
X177038000Y-91694000D03*
%TD*%
D14*
%TO.P,D37,2*%
%TO.N,Net-(D37-Pad2)*%
X168402000Y-87884000D03*
D15*
%TO.P,D37,1*%
%TO.N,Row5*%
X168402000Y-91694000D03*
%TD*%
D14*
%TO.P,D68,2*%
%TO.N,Row5*%
X233200000Y-99810000D03*
D15*
%TO.P,D68,1*%
%TO.N,Net-(D68-Pad1)*%
X233200000Y-96000000D03*
%TD*%
D14*
%TO.P,D54,2*%
%TO.N,Net-(D54-Pad2)*%
X194300000Y-87890000D03*
D15*
%TO.P,D54,1*%
%TO.N,Row5*%
X194300000Y-91700000D03*
%TD*%
D14*
%TO.P,D49,2*%
%TO.N,Net-(D49-Pad2)*%
X198600000Y-99810000D03*
D15*
%TO.P,D49,1*%
%TO.N,Row4*%
X198600000Y-96000000D03*
%TD*%
D14*
%TO.P,D64,2*%
%TO.N,Net-(D64-Pad2)*%
X215900000Y-99810000D03*
D15*
%TO.P,D64,1*%
%TO.N,Row5*%
X215900000Y-96000000D03*
%TD*%
D14*
%TO.P,D59,2*%
%TO.N,Net-(D59-Pad2)*%
X207264000Y-87884000D03*
D15*
%TO.P,D59,1*%
%TO.N,Row5*%
X207264000Y-91694000D03*
%TD*%
D14*
%TO.P,D63,2*%
%TO.N,Net-(D63-Pad2)*%
X228850000Y-87890000D03*
D15*
%TO.P,D63,1*%
%TO.N,Row4*%
X228850000Y-91700000D03*
%TD*%
D14*
%TO.P,D51,2*%
%TO.N,Net-(D51-Pad2)*%
X211600000Y-99800000D03*
D15*
%TO.P,D51,1*%
%TO.N,Row2*%
X211600000Y-95990000D03*
%TD*%
D14*
%TO.P,D2,2*%
%TO.N,Net-(D2-Pad2)*%
X84328000Y-99822000D03*
D15*
%TO.P,D2,1*%
%TO.N,Row2*%
X84328000Y-96012000D03*
%TD*%
D10*
%TO.P,SW6,2*%
%TO.N,Net-(D5-Pad2)*%
X15400000Y-191466000D03*
%TO.P,SW6,1*%
%TO.N,Col1*%
X21750000Y-188926000D03*
%TD*%
%TO.P,SW4,2*%
%TO.N,Net-(D3-Pad2)*%
X24950000Y-153366000D03*
%TO.P,SW4,1*%
%TO.N,Col1*%
X31300000Y-150826000D03*
%TD*%
%TO.P,SW9,2*%
%TO.N,Net-(D8-Pad2)*%
X53510000Y-153356000D03*
%TO.P,SW9,1*%
%TO.N,Col3*%
X59860000Y-150816000D03*
%TD*%
%TO.P,SW11,2*%
%TO.N,Net-(D10-Pad2)*%
X34450000Y-191466000D03*
%TO.P,SW11,1*%
%TO.N,Col2*%
X40800000Y-188926000D03*
%TD*%
%TO.P,SW3,2*%
%TO.N,Net-(D2-Pad2)*%
X24940000Y-134326000D03*
%TO.P,SW3,1*%
%TO.N,Col1*%
X31290000Y-131786000D03*
%TD*%
%TO.P,SW68,2*%
%TO.N,Net-(D67-Pad2)*%
X282120000Y-191436000D03*
%TO.P,SW68,1*%
%TO.N,Col15*%
X288470000Y-188896000D03*
%TD*%
%TO.P,SW65,2*%
%TO.N,Net-(D64-Pad2)*%
X263060000Y-191466000D03*
%TO.P,SW65,1*%
%TO.N,Col14*%
X269410000Y-188926000D03*
%TD*%
%TO.P,SW62,2*%
%TO.N,Net-(D61-Pad2)*%
X263060000Y-134306000D03*
%TO.P,SW62,1*%
%TO.N,Col14*%
X269410000Y-131766000D03*
%TD*%
%TO.P,SW60,2*%
%TO.N,Net-(D59-Pad2)*%
X244000000Y-191466000D03*
%TO.P,SW60,1*%
%TO.N,Col13*%
X250350000Y-188926000D03*
%TD*%
%TO.P,SW56,2*%
%TO.N,Net-(D55-Pad2)*%
X244000000Y-115246000D03*
%TO.P,SW56,1*%
%TO.N,Col13*%
X250350000Y-112706000D03*
%TD*%
%TO.P,SW55,2*%
%TO.N,Net-(D54-Pad2)*%
X224960000Y-191456000D03*
%TO.P,SW55,1*%
%TO.N,Col12*%
X231310000Y-188916000D03*
%TD*%
%TO.P,SW54,2*%
%TO.N,Net-(D53-Pad2)*%
X244010000Y-172416000D03*
%TO.P,SW54,1*%
%TO.N,Col13*%
X250360000Y-169876000D03*
%TD*%
%TO.P,SW53,2*%
%TO.N,Net-(D52-Pad2)*%
X244040000Y-153356000D03*
%TO.P,SW53,1*%
%TO.N,Col13*%
X250390000Y-150816000D03*
%TD*%
%TO.P,SW52,2*%
%TO.N,Net-(D51-Pad2)*%
X244000000Y-134306000D03*
%TO.P,SW52,1*%
%TO.N,Col13*%
X250350000Y-131766000D03*
%TD*%
%TO.P,SW51,2*%
%TO.N,Net-(D50-Pad2)*%
X224960000Y-115266000D03*
%TO.P,SW51,1*%
%TO.N,Col12*%
X231310000Y-112726000D03*
%TD*%
%TO.P,SW50,2*%
%TO.N,Net-(D49-Pad2)*%
X224960000Y-172416000D03*
%TO.P,SW50,1*%
%TO.N,Col12*%
X231310000Y-169876000D03*
%TD*%
%TO.P,SW49,2*%
%TO.N,Net-(D48-Pad2)*%
X224960000Y-153366000D03*
%TO.P,SW49,1*%
%TO.N,Col12*%
X231310000Y-150826000D03*
%TD*%
%TO.P,SW48,2*%
%TO.N,Net-(D47-Pad2)*%
X225020000Y-134296000D03*
%TO.P,SW48,1*%
%TO.N,Col12*%
X231370000Y-131756000D03*
%TD*%
%TO.P,SW47,2*%
%TO.N,Net-(D46-Pad2)*%
X205920000Y-115266000D03*
%TO.P,SW47,1*%
%TO.N,Col11*%
X212270000Y-112726000D03*
%TD*%
%TO.P,SW46,2*%
%TO.N,Net-(D45-Pad2)*%
X205950000Y-172416000D03*
%TO.P,SW46,1*%
%TO.N,Col11*%
X212300000Y-169876000D03*
%TD*%
%TO.P,SW45,2*%
%TO.N,Net-(D44-Pad2)*%
X205920000Y-153386000D03*
%TO.P,SW45,1*%
%TO.N,Col11*%
X212270000Y-150846000D03*
%TD*%
%TO.P,SW44,2*%
%TO.N,Net-(D43-Pad2)*%
X205980000Y-134316000D03*
%TO.P,SW44,1*%
%TO.N,Col11*%
X212330000Y-131776000D03*
%TD*%
%TO.P,SW43,2*%
%TO.N,Net-(D6-Pad2)*%
X186860000Y-115276000D03*
%TO.P,SW43,1*%
%TO.N,Col10*%
X193210000Y-112736000D03*
%TD*%
%TO.P,SW42,2*%
%TO.N,Net-(D41-Pad2)*%
X186890000Y-172426000D03*
%TO.P,SW42,1*%
%TO.N,Col10*%
X193240000Y-169886000D03*
%TD*%
%TO.P,SW41,2*%
%TO.N,Net-(D40-Pad2)*%
X186870000Y-153366000D03*
%TO.P,SW41,1*%
%TO.N,Col10*%
X193220000Y-150826000D03*
%TD*%
%TO.P,SW40,2*%
%TO.N,Net-(D39-Pad2)*%
X186890000Y-134306000D03*
%TO.P,SW40,1*%
%TO.N,Col10*%
X193240000Y-131766000D03*
%TD*%
%TO.P,SW39,2*%
%TO.N,Net-(D42-Pad2)*%
X167810000Y-115246000D03*
%TO.P,SW39,1*%
%TO.N,Col9*%
X174160000Y-112706000D03*
%TD*%
%TO.P,SW37,2*%
%TO.N,Net-(D36-Pad2)*%
X167810000Y-172416000D03*
%TO.P,SW37,1*%
%TO.N,Col9*%
X174160000Y-169876000D03*
%TD*%
%TO.P,SW36,2*%
%TO.N,Net-(D35-Pad2)*%
X167840000Y-153386000D03*
%TO.P,SW36,1*%
%TO.N,Col9*%
X174190000Y-150846000D03*
%TD*%
%TO.P,SW35,2*%
%TO.N,Net-(D34-Pad2)*%
X167800000Y-134316000D03*
%TO.P,SW35,1*%
%TO.N,Col9*%
X174150000Y-131776000D03*
%TD*%
%TO.P,SW33,2*%
%TO.N,Net-(D32-Pad2)*%
X148760000Y-172426000D03*
%TO.P,SW33,1*%
%TO.N,Col8*%
X155110000Y-169886000D03*
%TD*%
%TO.P,SW31,2*%
%TO.N,Net-(D30-Pad2)*%
X148780000Y-134306000D03*
%TO.P,SW31,1*%
%TO.N,Col8*%
X155130000Y-131766000D03*
%TD*%
%TO.P,SW30,2*%
%TO.N,Net-(D33-Pad2)*%
X129710000Y-115276000D03*
%TO.P,SW30,1*%
%TO.N,Col7*%
X136060000Y-112736000D03*
%TD*%
%TO.P,SW28,2*%
%TO.N,Net-(D27-Pad2)*%
X129720000Y-153366000D03*
%TO.P,SW28,1*%
%TO.N,Col7*%
X136070000Y-150826000D03*
%TD*%
%TO.P,SW27,2*%
%TO.N,Net-(D26-Pad2)*%
X129740000Y-134316000D03*
%TO.P,SW27,1*%
%TO.N,Col7*%
X136090000Y-131776000D03*
%TD*%
%TO.P,SW26,2*%
%TO.N,Net-(D29-Pad2)*%
X110660000Y-115266000D03*
%TO.P,SW26,1*%
%TO.N,Col6*%
X117010000Y-112726000D03*
%TD*%
%TO.P,SW25,2*%
%TO.N,Net-(D24-Pad2)*%
X110750000Y-172396000D03*
%TO.P,SW25,1*%
%TO.N,Col6*%
X117100000Y-169856000D03*
%TD*%
%TO.P,SW24,2*%
%TO.N,Net-(D23-Pad2)*%
X110650000Y-153366000D03*
%TO.P,SW24,1*%
%TO.N,Col6*%
X117000000Y-150826000D03*
%TD*%
%TO.P,SW23,2*%
%TO.N,Net-(D22-Pad2)*%
X110660000Y-134326000D03*
%TO.P,SW23,1*%
%TO.N,Col6*%
X117010000Y-131786000D03*
%TD*%
%TO.P,SW22,2*%
%TO.N,Net-(D25-Pad2)*%
X91620000Y-115266000D03*
%TO.P,SW22,1*%
%TO.N,Col5*%
X97970000Y-112726000D03*
%TD*%
%TO.P,SW21,2*%
%TO.N,Net-(D20-Pad2)*%
X72570000Y-191466000D03*
%TO.P,SW21,1*%
%TO.N,Col4*%
X78920000Y-188926000D03*
%TD*%
%TO.P,SW20,2*%
%TO.N,Net-(D19-Pad2)*%
X91640000Y-172406000D03*
%TO.P,SW20,1*%
%TO.N,Col5*%
X97990000Y-169866000D03*
%TD*%
%TO.P,SW18,2*%
%TO.N,Net-(D17-Pad2)*%
X91620000Y-134326000D03*
%TO.P,SW18,1*%
%TO.N,Col5*%
X97970000Y-131786000D03*
%TD*%
%TO.P,SW17,2*%
%TO.N,Net-(D21-Pad2)*%
X72570000Y-115256000D03*
%TO.P,SW17,1*%
%TO.N,Col4*%
X78920000Y-112716000D03*
%TD*%
%TO.P,SW16,2*%
%TO.N,Net-(D15-Pad2)*%
X53540000Y-191476000D03*
%TO.P,SW16,1*%
%TO.N,Col3*%
X59890000Y-188936000D03*
%TD*%
%TO.P,SW15,2*%
%TO.N,Net-(D14-Pad2)*%
X72560000Y-172406000D03*
%TO.P,SW15,1*%
%TO.N,Col4*%
X78910000Y-169866000D03*
%TD*%
%TO.P,SW14,2*%
%TO.N,Net-(D13-Pad2)*%
X72570000Y-153356000D03*
%TO.P,SW14,1*%
%TO.N,Col4*%
X78920000Y-150816000D03*
%TD*%
%TO.P,SW13,2*%
%TO.N,Net-(D12-Pad2)*%
X72560000Y-134316000D03*
%TO.P,SW13,1*%
%TO.N,Col4*%
X78910000Y-131776000D03*
%TD*%
%TO.P,SW12,2*%
%TO.N,Net-(D16-Pad2)*%
X53530000Y-115266000D03*
%TO.P,SW12,1*%
%TO.N,Col3*%
X59880000Y-112726000D03*
%TD*%
%TO.P,SW8,2*%
%TO.N,Net-(D7-Pad2)*%
X53520000Y-134296000D03*
%TO.P,SW8,1*%
%TO.N,Col3*%
X59870000Y-131756000D03*
%TD*%
%TO.P,SW7,2*%
%TO.N,Net-(D11-Pad2)*%
X34480000Y-115266000D03*
%TO.P,SW7,1*%
%TO.N,Col2*%
X40830000Y-112726000D03*
%TD*%
%TO.P,SW1,2*%
%TO.N,Net-(R7-Pad2)*%
X272542000Y-94742000D03*
%TO.P,SW1,1*%
%TO.N,RST*%
X278892000Y-92202000D03*
%TD*%
%TO.P,Shift1,2*%
%TO.N,Net-(D63-Pad2)*%
X272590000Y-172466000D03*
%TO.P,Shift1,1*%
%TO.N,Col14*%
X278940000Y-169926000D03*
%TD*%
D14*
%TO.P,D67,2*%
%TO.N,Net-(D67-Pad2)*%
X228850000Y-99800000D03*
D15*
%TO.P,D67,1*%
%TO.N,Row5*%
X228850000Y-95990000D03*
%TD*%
D14*
%TO.P,D66,2*%
%TO.N,Net-(D66-Pad2)*%
X233200000Y-87900000D03*
D15*
%TO.P,D66,1*%
%TO.N,Row2*%
X233200000Y-91710000D03*
%TD*%
D14*
%TO.P,D61,2*%
%TO.N,Net-(D61-Pad2)*%
X220200000Y-99800000D03*
D15*
%TO.P,D61,1*%
%TO.N,Row2*%
X220200000Y-95990000D03*
%TD*%
D14*
%TO.P,D60,2*%
%TO.N,Row3*%
X220218000Y-87884000D03*
D15*
%TO.P,D60,1*%
%TO.N,Net-(D60-Pad1)*%
X220218000Y-91694000D03*
%TD*%
D14*
%TO.P,D58,2*%
%TO.N,Row2*%
X71374000Y-99822000D03*
D15*
%TO.P,D58,1*%
%TO.N,Net-(D58-Pad1)*%
X71374000Y-96012000D03*
%TD*%
D14*
%TO.P,D57,2*%
%TO.N,Row1*%
X75692000Y-99822000D03*
D15*
%TO.P,D57,1*%
%TO.N,Net-(D57-Pad1)*%
X75692000Y-96012000D03*
%TD*%
D14*
%TO.P,D56,2*%
%TO.N,Net-(D56-Pad2)*%
X224550000Y-99800000D03*
D15*
%TO.P,D56,1*%
%TO.N,Row1*%
X224550000Y-95990000D03*
%TD*%
D14*
%TO.P,D55,2*%
%TO.N,Net-(D55-Pad2)*%
X215900000Y-87900000D03*
D15*
%TO.P,D55,1*%
%TO.N,Row1*%
X215900000Y-91710000D03*
%TD*%
D14*
%TO.P,D50,2*%
%TO.N,Net-(D50-Pad2)*%
X202900000Y-99800000D03*
D15*
%TO.P,D50,1*%
%TO.N,Row1*%
X202900000Y-95990000D03*
%TD*%
D14*
%TO.P,D48,2*%
%TO.N,Net-(D48-Pad2)*%
X198600000Y-87890000D03*
D15*
%TO.P,D48,1*%
%TO.N,Row3*%
X198600000Y-91700000D03*
%TD*%
D14*
%TO.P,D47,2*%
%TO.N,Net-(D47-Pad2)*%
X202900000Y-87900000D03*
D15*
%TO.P,D47,1*%
%TO.N,Row2*%
X202900000Y-91710000D03*
%TD*%
D14*
%TO.P,D46,2*%
%TO.N,Net-(D46-Pad2)*%
X194300000Y-99800000D03*
D15*
%TO.P,D46,1*%
%TO.N,Row1*%
X194300000Y-95990000D03*
%TD*%
D14*
%TO.P,D44,2*%
%TO.N,Net-(D44-Pad2)*%
X190000000Y-87890000D03*
D15*
%TO.P,D44,1*%
%TO.N,Row3*%
X190000000Y-91700000D03*
%TD*%
D14*
%TO.P,D43,2*%
%TO.N,Net-(D43-Pad2)*%
X190000000Y-99800000D03*
D15*
%TO.P,D43,1*%
%TO.N,Row2*%
X190000000Y-95990000D03*
%TD*%
D14*
%TO.P,D42,2*%
%TO.N,Net-(D42-Pad2)*%
X168402000Y-99822000D03*
D15*
%TO.P,D42,1*%
%TO.N,Row1*%
X168402000Y-96012000D03*
%TD*%
D14*
%TO.P,D40,2*%
%TO.N,Net-(D40-Pad2)*%
X181356000Y-99822000D03*
D15*
%TO.P,D40,1*%
%TO.N,Row3*%
X181356000Y-96012000D03*
%TD*%
D14*
%TO.P,D39,2*%
%TO.N,Net-(D39-Pad2)*%
X181356000Y-87884000D03*
D15*
%TO.P,D39,1*%
%TO.N,Row2*%
X181356000Y-91694000D03*
%TD*%
D14*
%TO.P,D38,2*%
%TO.N,Net-(D38-Pad2)*%
X140462000Y-87884000D03*
D15*
%TO.P,D38,1*%
%TO.N,Row1*%
X140462000Y-91694000D03*
%TD*%
D14*
%TO.P,D35,2*%
%TO.N,Net-(D35-Pad2)*%
X172720000Y-99822000D03*
D15*
%TO.P,D35,1*%
%TO.N,Row3*%
X172720000Y-96012000D03*
%TD*%
D14*
%TO.P,D34,2*%
%TO.N,Net-(D34-Pad2)*%
X172720000Y-87884000D03*
D15*
%TO.P,D34,1*%
%TO.N,Row2*%
X172720000Y-91694000D03*
%TD*%
D14*
%TO.P,D31,2*%
%TO.N,Net-(D31-Pad2)*%
X164084000Y-99822000D03*
D15*
%TO.P,D31,1*%
%TO.N,Row3*%
X164084000Y-96012000D03*
%TD*%
D14*
%TO.P,D29,2*%
%TO.N,Net-(D29-Pad2)*%
X123190000Y-99822000D03*
D15*
%TO.P,D29,1*%
%TO.N,Row1*%
X123190000Y-96012000D03*
%TD*%
D14*
%TO.P,D26,2*%
%TO.N,Net-(D26-Pad2)*%
X136144000Y-99822000D03*
D15*
%TO.P,D26,1*%
%TO.N,Row2*%
X136144000Y-96012000D03*
%TD*%
D14*
%TO.P,D25,2*%
%TO.N,Net-(D25-Pad2)*%
X114554000Y-99822000D03*
D15*
%TO.P,D25,1*%
%TO.N,Row1*%
X114554000Y-96012000D03*
%TD*%
D14*
%TO.P,D23,2*%
%TO.N,Net-(D23-Pad2)*%
X127508000Y-99822000D03*
D15*
%TO.P,D23,1*%
%TO.N,Row3*%
X127508000Y-96012000D03*
%TD*%
D14*
%TO.P,D18,2*%
%TO.N,Net-(D18-Pad2)*%
X118872000Y-99822000D03*
D15*
%TO.P,D18,1*%
%TO.N,Row3*%
X118872000Y-96012000D03*
%TD*%
D14*
%TO.P,D17,2*%
%TO.N,Net-(D17-Pad2)*%
X114554000Y-87884000D03*
D15*
%TO.P,D17,1*%
%TO.N,Row2*%
X114554000Y-91694000D03*
%TD*%
D14*
%TO.P,D16,2*%
%TO.N,Net-(D16-Pad2)*%
X92964000Y-99822000D03*
D15*
%TO.P,D16,1*%
%TO.N,Row1*%
X92964000Y-96012000D03*
%TD*%
D14*
%TO.P,D15,2*%
%TO.N,Net-(D15-Pad2)*%
X101600000Y-99822000D03*
D15*
%TO.P,D15,1*%
%TO.N,Row5*%
X101600000Y-96012000D03*
%TD*%
D14*
%TO.P,D14,2*%
%TO.N,Net-(D14-Pad2)*%
X110236000Y-99822000D03*
D15*
%TO.P,D14,1*%
%TO.N,Row4*%
X110236000Y-96012000D03*
%TD*%
D14*
%TO.P,D13,2*%
%TO.N,Net-(D13-Pad2)*%
X105918000Y-87884000D03*
D15*
%TO.P,D13,1*%
%TO.N,Row3*%
X105918000Y-91694000D03*
%TD*%
D14*
%TO.P,D12,2*%
%TO.N,Net-(D12-Pad2)*%
X105918000Y-99822000D03*
D15*
%TO.P,D12,1*%
%TO.N,Row2*%
X105918000Y-96012000D03*
%TD*%
D14*
%TO.P,D8,2*%
%TO.N,Net-(D8-Pad2)*%
X97282000Y-99822000D03*
D15*
%TO.P,D8,1*%
%TO.N,Row3*%
X97282000Y-96012000D03*
%TD*%
D14*
%TO.P,D7,2*%
%TO.N,Net-(D7-Pad2)*%
X92964000Y-87884000D03*
D15*
%TO.P,D7,1*%
%TO.N,Row2*%
X92964000Y-91694000D03*
%TD*%
D14*
%TO.P,D6,2*%
%TO.N,Net-(D6-Pad2)*%
X185674000Y-99822000D03*
D15*
%TO.P,D6,1*%
%TO.N,Row1*%
X185674000Y-96012000D03*
%TD*%
D14*
%TO.P,D4,2*%
%TO.N,Net-(D4-Pad2)*%
X75692000Y-87884000D03*
D15*
%TO.P,D4,1*%
%TO.N,Row4*%
X75692000Y-91694000D03*
%TD*%
D14*
%TO.P,D3,2*%
%TO.N,Net-(D3-Pad2)*%
X80010000Y-87884000D03*
D15*
%TO.P,D3,1*%
%TO.N,Row3*%
X80010000Y-91694000D03*
%TD*%
D17*
%TO.N,*%
X160775000Y-89427169D03*
%TO.N,+5V*%
X149625000Y-99875000D03*
X147150000Y-99550000D03*
X147300000Y-91925000D03*
X144650000Y-90375000D03*
X149150000Y-89650000D03*
X145587000Y-101423000D03*
X147746000Y-95200000D03*
X160954000Y-86564000D03*
X158978039Y-87816747D03*
X142372646Y-88359234D03*
%TO.N,RST*%
X148250000Y-100500000D03*
X255300000Y-91800000D03*
%TO.N,Net-(D57-Pad1)*%
X155061818Y-88724980D03*
%TO.N,Net-(D58-Pad1)*%
X150967358Y-88366747D03*
%TO.N,Net-(D60-Pad1)*%
X159463898Y-91550209D03*
%TO.N,Net-(D65-Pad1)*%
X156045000Y-88542347D03*
%TO.N,Net-(D68-Pad1)*%
X159696748Y-89266748D03*
%TO.N,Col13*%
X152092021Y-88466104D03*
%TO.N,Col1*%
X148980000Y-90880000D03*
%TO.N,Col2*%
X146618937Y-97458938D03*
%TO.N,Col3*%
X146475729Y-98811513D03*
%TO.N,Col5*%
X153800001Y-99525000D03*
%TO.N,Col6*%
X157050002Y-100170000D03*
%TO.N,Col7*%
X157942021Y-100622001D03*
%TO.N,Col8*%
X158915139Y-100391684D03*
%TO.N,Col9*%
X157480000Y-95375000D03*
%TO.N,Col10*%
X158851341Y-95310213D03*
%TO.N,Col11*%
X158680000Y-94325000D03*
%TO.N,Col12*%
X149955504Y-88380199D03*
%TO.N,Col14*%
X153400000Y-88910000D03*
%TO.N,Col4*%
X147544905Y-98631278D03*
%TO.N,Col15*%
X160463620Y-91573872D03*
%TO.N,Net-(J1-PadB5)*%
X144970000Y-80920000D03*
%TO.N,Net-(C1-Pad2)*%
X153620000Y-84695000D03*
%TO.N,GND*%
X160775000Y-92600000D03*
X162225000Y-93275000D03*
X151220000Y-85870000D03*
X153620000Y-85770000D03*
X149900000Y-102425000D03*
X160954000Y-97740000D03*
X151475000Y-98925000D03*
%TD*%
D18*
%TO.N,+5V*%
X147746000Y-92371000D02*
X147300000Y-91925000D01*
X147746000Y-95200000D02*
X147746000Y-92371000D01*
X160230786Y-86564000D02*
X158978039Y-87816747D01*
X160954000Y-86564000D02*
X160230786Y-86564000D01*
%TO.N,Row1*%
X75692000Y-99822000D02*
X75946000Y-99568000D01*
X192774999Y-97515001D02*
X194300000Y-95990000D01*
X187177001Y-97515001D02*
X192774999Y-97515001D01*
X185674000Y-96012000D02*
X187177001Y-97515001D01*
X201384999Y-94474999D02*
X202900000Y-95990000D01*
X195815001Y-94474999D02*
X201384999Y-94474999D01*
X194300000Y-95990000D02*
X195815001Y-94474999D01*
%TO.N,Net-(D4-Pad2)*%
X75692000Y-87884000D02*
X77217001Y-89409001D01*
X77978000Y-90170000D02*
X75692000Y-87884000D01*
X77578000Y-103378000D02*
X77978000Y-102978000D01*
X64516000Y-103378000D02*
X77578000Y-103378000D01*
X20828000Y-147676002D02*
X21149600Y-147354402D01*
X21035000Y-153933608D02*
X21035000Y-153115000D01*
X27997990Y-109541600D02*
X28261600Y-109277990D01*
X22155990Y-155054598D02*
X21035000Y-153933608D01*
X21035000Y-153115000D02*
X20828000Y-152908000D01*
X77978000Y-102978000D02*
X77978000Y-90170000D01*
X20828000Y-161153000D02*
X20872000Y-161153000D01*
X46295599Y-105721991D02*
X62297600Y-105721990D01*
X22054989Y-159970011D02*
X22054989Y-155155599D01*
X44503989Y-108769991D02*
X44761990Y-108511990D01*
X22054989Y-155155599D02*
X22155990Y-155054598D01*
X44761990Y-107255600D02*
X46295599Y-105721991D01*
X20828000Y-152908000D02*
X20828000Y-147676002D01*
X21217000Y-171958000D02*
X20828000Y-171569000D01*
X25654000Y-139021000D02*
X25654000Y-135884588D01*
X20828000Y-171569000D02*
X20828000Y-161153000D01*
X24512000Y-171958000D02*
X21217000Y-171958000D01*
X21149600Y-147354402D02*
X21149600Y-140775400D01*
X21903400Y-140021600D02*
X22155990Y-140021600D01*
X20872000Y-161153000D02*
X22054989Y-159970011D01*
X22155990Y-140021600D02*
X22673600Y-139503990D01*
X21149600Y-140775400D02*
X21903400Y-140021600D01*
X33595599Y-108769991D02*
X44503989Y-108769991D01*
X22673600Y-139503990D02*
X25171010Y-139503990D01*
X62297600Y-105721990D02*
X64516000Y-103503590D01*
X25171010Y-139503990D02*
X25654000Y-139021000D01*
X25654000Y-135884588D02*
X27997990Y-133540598D01*
X64516000Y-103503590D02*
X64516000Y-103378000D01*
X27997990Y-133540598D02*
X27997990Y-109541600D01*
X24980000Y-172426000D02*
X24512000Y-171958000D01*
X28261600Y-109277990D02*
X33087600Y-109277990D01*
X33087600Y-109277990D02*
X33595599Y-108769991D01*
X44761990Y-108511990D02*
X44761990Y-107255600D01*
%TO.N,Row4*%
X95756999Y-93219001D02*
X97282000Y-91694000D01*
X91438999Y-93154001D02*
X91503999Y-93219001D01*
X91438999Y-91501997D02*
X91438999Y-93154001D01*
X78484999Y-88616001D02*
X80037997Y-90168999D01*
X78484999Y-88419997D02*
X78484999Y-88616001D01*
X76424001Y-86358999D02*
X78484999Y-88419997D01*
X74959999Y-86358999D02*
X76424001Y-86358999D01*
X74166999Y-87151999D02*
X74959999Y-86358999D01*
X74166999Y-90168999D02*
X74166999Y-87151999D01*
X91503999Y-93219001D02*
X95756999Y-93219001D01*
X90106001Y-90168999D02*
X91438999Y-91501997D01*
X80037997Y-90168999D02*
X90106001Y-90168999D01*
X75692000Y-91694000D02*
X74166999Y-90168999D01*
X112211010Y-90684008D02*
X112211010Y-94036990D01*
X112211010Y-94036990D02*
X110236000Y-96012000D01*
X108775999Y-90168999D02*
X111696001Y-90168999D01*
X108710999Y-93154001D02*
X108710999Y-90233999D01*
X108645999Y-93219001D02*
X108710999Y-93154001D01*
X108710999Y-90233999D02*
X108775999Y-90168999D01*
X98807001Y-93219001D02*
X108645999Y-93219001D01*
X111696001Y-90168999D02*
X112211010Y-90684008D01*
X97282000Y-91694000D02*
X98807001Y-93219001D01*
X116079001Y-94486999D02*
X118872000Y-91694000D01*
X111761001Y-94486999D02*
X116079001Y-94486999D01*
X110236000Y-96012000D02*
X111761001Y-94486999D01*
X125982999Y-93219001D02*
X127508000Y-91694000D01*
X120397001Y-93219001D02*
X125982999Y-93219001D01*
X118872000Y-91694000D02*
X120397001Y-93219001D01*
X127508000Y-91694000D02*
X131826000Y-91694000D01*
X175512999Y-90168999D02*
X177038000Y-91694000D01*
X165609001Y-90168999D02*
X175512999Y-90168999D01*
X164084000Y-91694000D02*
X165609001Y-90168999D01*
%TO.N,Net-(D5-Pad2)*%
X22659000Y-191466000D02*
X15400000Y-191466000D01*
X23175001Y-190949999D02*
X22659000Y-191466000D01*
X22504999Y-187571997D02*
X23175001Y-188241999D01*
X22504999Y-187553001D02*
X22504999Y-187571997D01*
X33274000Y-109728000D02*
X29222000Y-109728000D01*
X29222000Y-109728000D02*
X28448000Y-110502000D01*
X45212000Y-107442000D02*
X45212000Y-108956390D01*
X28448000Y-110502000D02*
X28448000Y-133726998D01*
X28448000Y-133726998D02*
X26162000Y-136012998D01*
X44948390Y-109220000D02*
X33782000Y-109220000D01*
X33782000Y-109220000D02*
X33274000Y-109728000D01*
X82042000Y-100808000D02*
X82042000Y-102616000D01*
X80772000Y-103886000D02*
X64770000Y-103886000D01*
X25605002Y-170942000D02*
X26670000Y-172006998D01*
X64770000Y-103886000D02*
X62484000Y-106172000D01*
X22504999Y-155341999D02*
X22504999Y-170404999D01*
X45212000Y-108956390D02*
X44948390Y-109220000D01*
X46482000Y-106172000D02*
X45212000Y-107442000D01*
X23175001Y-188241999D02*
X23175001Y-190949999D01*
X26464999Y-172211999D02*
X26464999Y-173950003D01*
X22606000Y-155240998D02*
X22504999Y-155341999D01*
X23042000Y-170942000D02*
X25605002Y-170942000D01*
X80000000Y-99810000D02*
X81044000Y-99810000D01*
X81044000Y-99810000D02*
X82042000Y-100808000D01*
X22504999Y-170404999D02*
X23042000Y-170942000D01*
X26670000Y-172006998D02*
X26464999Y-172211999D01*
X82042000Y-102616000D02*
X80772000Y-103886000D01*
X26464999Y-173950003D02*
X22869002Y-177546000D01*
X22869002Y-177546000D02*
X22869002Y-187188998D01*
X62484000Y-106172000D02*
X46482000Y-106172000D01*
X22869002Y-187188998D02*
X22504999Y-187553001D01*
X22719000Y-141431000D02*
X23942000Y-140208000D01*
X22606000Y-141431000D02*
X22719000Y-141431000D01*
X22606000Y-141431000D02*
X22606000Y-155240998D01*
X25458000Y-140192000D02*
X26162000Y-139488000D01*
X25458000Y-140208000D02*
X25458000Y-140192000D01*
X26162000Y-136012998D02*
X26162000Y-139488000D01*
X25458000Y-140208000D02*
X23942000Y-140208000D01*
%TO.N,Row5*%
X110236000Y-91694000D02*
X110236000Y-93144000D01*
X103378000Y-94234000D02*
X101600000Y-96012000D01*
X109146000Y-94234000D02*
X103378000Y-94234000D01*
X101600000Y-96012000D02*
X101600000Y-94742000D01*
X101600000Y-94742000D02*
X100838000Y-93980000D01*
X90932000Y-93980000D02*
X88646000Y-91694000D01*
X100838000Y-93980000D02*
X90932000Y-93980000D01*
X110236000Y-93144000D02*
X109146000Y-94234000D01*
X191624999Y-93225001D02*
X192350000Y-92500000D01*
X182822001Y-93225001D02*
X191624999Y-93225001D01*
X182816001Y-93219001D02*
X182822001Y-93225001D01*
X192350000Y-92500000D02*
X193500000Y-92500000D01*
X169927001Y-93219001D02*
X182816001Y-93219001D01*
X193500000Y-92500000D02*
X194300000Y-91700000D01*
X168402000Y-91694000D02*
X169927001Y-93219001D01*
X205722999Y-93235001D02*
X207264000Y-91694000D01*
X195835001Y-93235001D02*
X205722999Y-93235001D01*
X194300000Y-91700000D02*
X195835001Y-93235001D01*
X213135001Y-93235001D02*
X215900000Y-96000000D01*
X208805001Y-93235001D02*
X213135001Y-93235001D01*
X207264000Y-91694000D02*
X208805001Y-93235001D01*
X227324999Y-97515001D02*
X228850000Y-95990000D01*
X217415001Y-97515001D02*
X227324999Y-97515001D01*
X215900000Y-96000000D02*
X217415001Y-97515001D01*
X234725001Y-87167999D02*
X234725001Y-98284999D01*
X233932001Y-86374999D02*
X234725001Y-87167999D01*
X232467999Y-86374999D02*
X233932001Y-86374999D01*
X231224989Y-87618009D02*
X232467999Y-86374999D01*
X234725001Y-98284999D02*
X233200000Y-99810000D01*
X231224989Y-93615011D02*
X231224989Y-87618009D01*
X228850000Y-95990000D02*
X231224989Y-93615011D01*
X168402000Y-91694000D02*
X166876999Y-93219001D01*
X80000000Y-96000000D02*
X80000000Y-96200000D01*
X87120999Y-93219001D02*
X88646000Y-91694000D01*
X82980999Y-93219001D02*
X87120999Y-93219001D01*
X80000000Y-96200000D02*
X82980999Y-93219001D01*
X233200000Y-99810000D02*
X233200000Y-99910000D01*
%TO.N,Net-(D57-Pad1)*%
X21075999Y-114141001D02*
X22444001Y-114141001D01*
X20334999Y-113400001D02*
X21075999Y-114141001D01*
X20334999Y-112031999D02*
X20334999Y-113400001D01*
X46908017Y-85458981D02*
X20334999Y-112031999D01*
X97113983Y-85458981D02*
X46908017Y-85458981D01*
X98807001Y-88616001D02*
X98807001Y-87151999D01*
X119604001Y-86358999D02*
X101064003Y-86358999D01*
X73716989Y-94036989D02*
X75692000Y-96012000D01*
X120265002Y-87020000D02*
X119604001Y-86358999D01*
X121796998Y-87020000D02*
X120265002Y-87020000D01*
X122457999Y-86358999D02*
X121796998Y-87020000D01*
X98807001Y-87151999D02*
X97113983Y-85458981D01*
X141194001Y-86358999D02*
X122457999Y-86358999D01*
X101064003Y-86358999D02*
X98807001Y-88616001D01*
X142476748Y-87641746D02*
X141194001Y-86358999D01*
X153978584Y-87641746D02*
X142476748Y-87641746D01*
X155061818Y-88724980D02*
X153978584Y-87641746D01*
X73716989Y-91051987D02*
X72150002Y-89485000D01*
X73716989Y-94036989D02*
X73716989Y-91051987D01*
X47100002Y-89485000D02*
X42178001Y-94407001D01*
X72150002Y-89485000D02*
X47100002Y-89485000D01*
X42178001Y-94407001D02*
X42548013Y-94036989D01*
X22444001Y-114141001D02*
X42178001Y-94407001D01*
%TO.N,Net-(D58-Pad1)*%
X150967358Y-88366747D02*
X150967358Y-88482642D01*
%TO.N,Net-(D66-Pad2)*%
X283400000Y-111675000D02*
X283400000Y-133026000D01*
X282725000Y-111000000D02*
X283400000Y-111675000D01*
X274850000Y-110400000D02*
X275450000Y-111000000D01*
X283400000Y-133026000D02*
X282110000Y-134316000D01*
X231674999Y-89425001D02*
X231674999Y-103400001D01*
X233200000Y-87900000D02*
X231674999Y-89425001D01*
X231674999Y-103400001D02*
X231775001Y-103400001D01*
X240100000Y-103950000D02*
X241650000Y-105500000D01*
X241650000Y-105500000D02*
X258150000Y-105500000D01*
X232325000Y-103950000D02*
X240100000Y-103950000D01*
X273250000Y-106800000D02*
X274850000Y-108400000D01*
X275450000Y-111000000D02*
X282725000Y-111000000D01*
X258150000Y-105500000D02*
X259450000Y-106800000D01*
X274850000Y-108400000D02*
X274850000Y-110400000D01*
X231775001Y-103400001D02*
X232325000Y-103950000D01*
X259450000Y-106800000D02*
X273250000Y-106800000D01*
%TO.N,Col13*%
X152092021Y-88466104D02*
X152092021Y-91932021D01*
X160500009Y-94333601D02*
X160500009Y-96220009D01*
X152092021Y-91932021D02*
X153159990Y-92999990D01*
X159166398Y-92999990D02*
X160500009Y-94333601D01*
X161450000Y-97170000D02*
X162190000Y-97170000D01*
X250350000Y-109300000D02*
X250350000Y-112706000D01*
X153159990Y-92999990D02*
X159166398Y-92999990D01*
X160500009Y-96220009D02*
X161450000Y-97170000D01*
X168432087Y-106289990D02*
X247339990Y-106289990D01*
X162190000Y-97170000D02*
X163230000Y-98210000D01*
X163230000Y-98210000D02*
X164729002Y-98210000D01*
X165609001Y-103466904D02*
X168432087Y-106289990D01*
X247339990Y-106289990D02*
X250350000Y-109300000D01*
X164729002Y-98210000D02*
X165609001Y-99089999D01*
X165609001Y-99089999D02*
X165609001Y-103466904D01*
%TO.N,Col1*%
X147560000Y-89460000D02*
X148980000Y-90880000D01*
X81535001Y-88616001D02*
X82379000Y-89460000D01*
X81535001Y-87151999D02*
X81535001Y-88616001D01*
X80291992Y-85908990D02*
X81535001Y-87151999D01*
X48567010Y-85908990D02*
X80291992Y-85908990D01*
X82379000Y-89460000D02*
X147560000Y-89460000D01*
X21760000Y-112716000D02*
X48567010Y-85908990D01*
%TO.N,Col2*%
X40816000Y-112726000D02*
X40830000Y-112726000D01*
X64960000Y-104490000D02*
X66030000Y-104490000D01*
X66030000Y-104490000D02*
X66183990Y-104336010D01*
X46030000Y-109081634D02*
X46030000Y-107600000D01*
X146321062Y-97458938D02*
X146618937Y-97458938D01*
X46030000Y-107600000D02*
X47007990Y-106622010D01*
X47007990Y-106622010D02*
X62827990Y-106622010D01*
X81113990Y-104336010D02*
X82910000Y-102540000D01*
X62827990Y-106622010D02*
X64960000Y-104490000D01*
X40830000Y-112726000D02*
X42385634Y-112726000D01*
X42385634Y-112726000D02*
X46030000Y-109081634D01*
X66183990Y-104336010D02*
X81113990Y-104336010D01*
X82910000Y-102540000D02*
X82910001Y-102503589D01*
X142160000Y-101620000D02*
X146321062Y-97458938D01*
X83793589Y-101620001D02*
X142160000Y-101620000D01*
X82910001Y-102503589D02*
X83793589Y-101620001D01*
%TO.N,Col3*%
X146475729Y-98811513D02*
X146007242Y-99280000D01*
X145850000Y-99280000D02*
X143059990Y-102070010D01*
X146007242Y-99280000D02*
X145850000Y-99280000D01*
X143059990Y-102070010D02*
X83979990Y-102070010D01*
X63014391Y-107072019D02*
X61620000Y-107072020D01*
X83979990Y-102070010D02*
X83360010Y-102689990D01*
X83360010Y-102689990D02*
X83360010Y-102726400D01*
X81300391Y-104786019D02*
X66370390Y-104786020D01*
X61620000Y-107072020D02*
X59880000Y-108812020D01*
X83360010Y-102726400D02*
X81300391Y-104786019D01*
X66370390Y-104786020D02*
X66216401Y-104940009D01*
X59880000Y-108812020D02*
X59880000Y-112726000D01*
X66216401Y-104940009D02*
X65146400Y-104940010D01*
X65146400Y-104940010D02*
X63014391Y-107072019D01*
%TO.N,Col5*%
X153230000Y-100095001D02*
X153800001Y-99525000D01*
X150389999Y-103150001D02*
X153230000Y-100310000D01*
X98970001Y-103150001D02*
X150389999Y-103150001D01*
X97970000Y-104150002D02*
X98970001Y-103150001D01*
X153230000Y-100310000D02*
X153230000Y-100095001D01*
X97970000Y-112726000D02*
X97970000Y-104150002D01*
%TO.N,Col6*%
X117010000Y-112726000D02*
X117010000Y-104060011D01*
X117010000Y-104060011D02*
X117470000Y-103600011D01*
X153619991Y-103600011D02*
X157050002Y-100170000D01*
X117470000Y-103600011D02*
X153619991Y-103600011D01*
%TO.N,Col7*%
X157942021Y-100622001D02*
X154514001Y-104050021D01*
X154514001Y-104050021D02*
X136649979Y-104050021D01*
X136649979Y-104050021D02*
X136350000Y-104350000D01*
X136350000Y-112446000D02*
X136060000Y-112736000D01*
X136350000Y-104350000D02*
X136350000Y-112446000D01*
%TO.N,Col8*%
X155100000Y-104772508D02*
X155100000Y-112716000D01*
X158915139Y-100957369D02*
X155100000Y-104772508D01*
X158915139Y-100391684D02*
X158915139Y-100957369D01*
%TO.N,Col9*%
X157480000Y-95370000D02*
X157480000Y-97990000D01*
X157586457Y-97990000D02*
X171876457Y-112280000D01*
X157480000Y-97990000D02*
X157586457Y-97990000D01*
X173734000Y-112280000D02*
X174160000Y-112706000D01*
X171876457Y-112280000D02*
X173734000Y-112280000D01*
%TO.N,Col10*%
X158851341Y-98618474D02*
X158851341Y-95310213D01*
X167922867Y-107690000D02*
X158851341Y-98618474D01*
X192260000Y-107690000D02*
X192270000Y-107690000D01*
X192260000Y-107690000D02*
X167922867Y-107690000D01*
X193210000Y-108630000D02*
X193210000Y-112736000D01*
X192270000Y-107690000D02*
X193210000Y-108630000D01*
%TO.N,Col11*%
X159576342Y-94962212D02*
X159576342Y-96133658D01*
X159199342Y-94585212D02*
X159576342Y-94962212D01*
X158775212Y-94585212D02*
X159199342Y-94585212D01*
X158680000Y-94490000D02*
X158775212Y-94585212D01*
X158680000Y-94325000D02*
X158680000Y-94490000D01*
X159576342Y-96133658D02*
X159370000Y-96340000D01*
X159370000Y-96340000D02*
X159370000Y-98500723D01*
X159370000Y-98500723D02*
X168109267Y-107239990D01*
X192456401Y-107239991D02*
X192456410Y-107240000D01*
X168109267Y-107239990D02*
X192456401Y-107239991D01*
X212310000Y-112686000D02*
X212270000Y-112726000D01*
X211100000Y-107350000D02*
X212310000Y-108560000D01*
X211100000Y-107240000D02*
X211100000Y-107350000D01*
X212310000Y-108560000D02*
X212310000Y-112686000D01*
X192456410Y-107240000D02*
X211100000Y-107240000D01*
%TO.N,Col12*%
X225373981Y-106789981D02*
X231310000Y-112726000D01*
X168295668Y-106789981D02*
X225373981Y-106789981D01*
X160049999Y-98544312D02*
X168295668Y-106789981D01*
X160049999Y-94520001D02*
X160049999Y-98544312D01*
X152973590Y-93450000D02*
X158979998Y-93450000D01*
X158979998Y-93450000D02*
X160049999Y-94520001D01*
X150242357Y-88562357D02*
X150242357Y-90718767D01*
X150060199Y-88380199D02*
X150242357Y-88562357D01*
X150242357Y-90718767D02*
X152973590Y-93450000D01*
X149955504Y-88380199D02*
X150060199Y-88380199D01*
%TO.N,Col4*%
X81486792Y-105236028D02*
X83810020Y-102912800D01*
X83810020Y-102912800D02*
X83810020Y-102876390D01*
X83810020Y-102876390D02*
X84166390Y-102520020D01*
X148480001Y-99149999D02*
X148269906Y-98939904D01*
X148269906Y-98939904D02*
X148269906Y-98979279D01*
X149973001Y-99149999D02*
X148480001Y-99149999D01*
X150350001Y-99526999D02*
X149973001Y-99149999D01*
X150350001Y-100223001D02*
X150350001Y-99526999D01*
X148052982Y-102520020D02*
X150350001Y-100223001D01*
X84166390Y-102520020D02*
X148052982Y-102520020D01*
X147853531Y-98939904D02*
X147544905Y-98631278D01*
X148269906Y-98939904D02*
X147853531Y-98939904D01*
X78970000Y-106040000D02*
X79773972Y-105236028D01*
X79773972Y-105236028D02*
X81486792Y-105236028D01*
X78920000Y-106040000D02*
X78970000Y-106040000D01*
X78920000Y-112716000D02*
X78920000Y-106040000D01*
%TO.N,Col15*%
X234118402Y-85924990D02*
X235680000Y-87486588D01*
X232281599Y-85924989D02*
X234118402Y-85924990D01*
X230774980Y-87431608D02*
X232281599Y-85924989D01*
X230774980Y-88798000D02*
X230774980Y-87431608D01*
X229853991Y-89718989D02*
X230774980Y-88798000D01*
X162318503Y-89718989D02*
X229853991Y-89718989D01*
X160463620Y-91573872D02*
X162318503Y-89718989D01*
X235680000Y-101350000D02*
X237829990Y-103499990D01*
X235680000Y-87486588D02*
X235680000Y-101350000D01*
X237829990Y-103499990D02*
X240286401Y-103499991D01*
X241836400Y-105049990D02*
X258336401Y-105049991D01*
X240286401Y-103499991D02*
X241836400Y-105049990D01*
X278711400Y-106349990D02*
X283980000Y-111618590D01*
X259636400Y-106349990D02*
X278711400Y-106349990D01*
X258336401Y-105049991D02*
X259636400Y-106349990D01*
X283980000Y-127730000D02*
X288026000Y-131776000D01*
X283980000Y-115360000D02*
X283980000Y-127730000D01*
X283980000Y-111618590D02*
X283980000Y-115360000D01*
X288026000Y-131776000D02*
X288460000Y-131776000D01*
%TO.N,Net-(C1-Pad2)*%
X155020000Y-78890000D02*
X155020000Y-75510000D01*
X155020000Y-75510000D02*
X146370000Y-75510000D01*
X146370000Y-75510000D02*
X146370000Y-78890000D01*
X153974999Y-77844999D02*
X155020000Y-78890000D01*
X147415001Y-77844999D02*
X153974999Y-77844999D01*
X146370000Y-78890000D02*
X147415001Y-77844999D01*
X155020000Y-83295000D02*
X155020000Y-78890000D01*
X153620000Y-84695000D02*
X155020000Y-83295000D01*
%TO.N,GND*%
X161550000Y-92600000D02*
X162225000Y-93275000D01*
X160775000Y-92600000D02*
X161550000Y-92600000D01*
X153520000Y-85670000D02*
X153620000Y-85770000D01*
X151220000Y-85670000D02*
X153520000Y-85670000D01*
X151225000Y-98749998D02*
X151225000Y-101100000D01*
X151225000Y-101100000D02*
X149900000Y-102425000D01*
%TD*%
M02*
