EESchema Schematic File Version 4
EELAYER 30 0
EELAYER END
$Descr A2 23386 16535
encoding utf-8
Sheet 1 1
Title "keyboard PCB"
Date "2021-11-01"
Rev "1.0"
Comp ""
Comment1 ""
Comment2 ""
Comment3 ""
Comment4 ""
$EndDescr
Wire Wire Line
	2700 7500 2700 7600
Wire Wire Line
	2750 7450 2750 7500
Wire Wire Line
	2750 7500 2700 7500
Connection ~ 2700 7500
Wire Wire Line
	2700 7500 2650 7500
Wire Wire Line
	2650 7500 2650 7450
$Comp
L Device:R_Small R6
U 1 1 61831DB3
P 3450 6250
F 0 "R6" V 3254 6250 50  0000 C CNN
F 1 "1K" V 3345 6250 50  0000 C CNN
F 2 "Resistor_SMD:R_1206_3216Metric" H 3450 6250 50  0001 C CNN
F 3 "~" H 3450 6250 50  0001 C CNN
	1    3450 6250
	0    1    1    0   
$EndComp
$Comp
L power:+5V #PWR06
U 1 1 61834C29
P 4950 1200
F 0 "#PWR06" H 4950 1050 50  0001 C CNN
F 1 "+5V" H 4965 1373 50  0000 C CNN
F 2 "" H 4950 1200 50  0001 C CNN
F 3 "" H 4950 1200 50  0001 C CNN
	1    4950 1200
	1    0    0    -1  
$EndComp
$Comp
L Device:R_Small R2
U 1 1 6183591E
P 4950 1300
F 0 "R2" H 5009 1346 50  0000 L CNN
F 1 "10K" H 5009 1255 50  0000 L CNN
F 2 "Resistor_SMD:R_1206_3216Metric" H 4950 1300 50  0001 C CNN
F 3 "~" H 4950 1300 50  0001 C CNN
	1    4950 1300
	1    0    0    -1  
$EndComp
Text GLabel 5400 1400 2    50   Output ~ 0
RST
$Comp
L Device:C_Small C6
U 1 1 61840861
P 2450 3450
F 0 "C6" H 2358 3404 50  0001 R CNN
F 1 "10u" H 2358 3495 50  0001 R CNN
F 2 "Capacitor_SMD:C_0805_2012Metric" H 2450 3450 50  0001 C CNN
F 3 "~" H 2450 3450 50  0001 C CNN
	1    2450 3450
	-1   0    0    1   
$EndComp
$Comp
L Device:C_Small C8
U 1 1 61840DFF
P 2750 3450
F 0 "C8" H 2658 3404 50  0001 R CNN
F 1 "100n" H 2658 3495 50  0001 R CNN
F 2 "Capacitor_SMD:C_0805_2012Metric" H 2750 3450 50  0001 C CNN
F 3 "~" H 2750 3450 50  0001 C CNN
	1    2750 3450
	-1   0    0    1   
$EndComp
$Comp
L power:+5V #PWR011
U 1 1 618439B9
P 2600 3250
F 0 "#PWR011" H 2600 3100 50  0001 C CNN
F 1 "+5V" H 2615 3423 50  0001 C CNN
F 2 "" H 2600 3250 50  0001 C CNN
F 3 "" H 2600 3250 50  0001 C CNN
	1    2600 3250
	1    0    0    -1  
$EndComp
$Comp
L Device:C_Small C9
U 1 1 618470C1
P 2900 3450
F 0 "C9" H 2808 3404 50  0001 R CNN
F 1 "100nF" H 2808 3495 50  0001 R CNN
F 2 "Capacitor_SMD:C_0805_2012Metric" H 2900 3450 50  0001 C CNN
F 3 "~" H 2900 3450 50  0001 C CNN
	1    2900 3450
	-1   0    0    1   
$EndComp
Wire Wire Line
	2750 3550 2750 3600
Wire Wire Line
	2600 3250 2600 3350
Connection ~ 2600 3350
Wire Wire Line
	2600 3650 2600 3600
Connection ~ 2600 3600
Wire Wire Line
	2450 3600 2450 3550
$Comp
L power:+5V #PWR014
U 1 1 61851A74
P 2750 3750
F 0 "#PWR014" H 2750 3600 50  0001 C CNN
F 1 "+5V" H 2765 3923 50  0001 C CNN
F 2 "" H 2750 3750 50  0001 C CNN
F 3 "" H 2750 3750 50  0001 C CNN
	1    2750 3750
	1    0    0    -1  
$EndComp
Wire Wire Line
	2650 3850 2750 3850
Connection ~ 2750 3850
Wire Wire Line
	2750 3850 2850 3850
Wire Wire Line
	2750 3750 2750 3850
$Comp
L power:+5V #PWR09
U 1 1 6185CF4D
P 1800 1300
F 0 "#PWR09" H 1800 1150 50  0001 C CNN
F 1 "+5V" V 1900 1200 50  0000 L CNN
F 2 "" H 1800 1300 50  0001 C CNN
F 3 "" H 1800 1300 50  0001 C CNN
	1    1800 1300
	0    1    1    0   
$EndComp
Wire Wire Line
	1700 1300 1800 1300
Wire Wire Line
	1100 2850 1100 2800
$Comp
L Device:R_Small R4
U 1 1 6186035C
P 1950 1800
F 0 "R4" V 1950 1800 50  0000 C CNN
F 1 "22k" V 2050 1800 50  0000 C CNN
F 2 "Resistor_SMD:R_1206_3216Metric" H 1950 1800 50  0001 C CNN
F 3 "~" H 1950 1800 50  0001 C CNN
	1    1950 1800
	0    1    1    0   
$EndComp
$Comp
L Device:R_Small R5
U 1 1 61861179
P 1950 2000
F 0 "R5" V 1950 2000 50  0000 C CNN
F 1 "22k" V 2050 2000 50  0000 C CNN
F 2 "Resistor_SMD:R_1206_3216Metric" H 1950 2000 50  0001 C CNN
F 3 "~" H 1950 2000 50  0001 C CNN
	1    1950 2000
	0    1    1    0   
$EndComp
Wire Wire Line
	1700 2000 1800 2000
Wire Wire Line
	1700 1800 1800 1800
Text GLabel 2150 1800 2    50   Output ~ 0
DN
Text GLabel 2150 2000 2    50   Output ~ 0
DP
Wire Wire Line
	2050 2000 2150 2000
Wire Wire Line
	2050 1800 2150 1800
$Comp
L Device:R_Small R1
U 1 1 6187873E
P 600 2900
F 0 "R1" H 659 2946 50  0000 L CNN
F 1 "1M" V 600 2850 50  0000 L CNN
F 2 "Resistor_SMD:R_1206_3216Metric" H 600 2900 50  0001 C CNN
F 3 "~" H 600 2900 50  0001 C CNN
	1    600  2900
	1    0    0    -1  
$EndComp
$Comp
L Device:C_Small C1
U 1 1 61879B3F
P 800 2950
F 0 "C1" H 892 2996 50  0000 L CNN
F 1 "C_Small" H 892 2905 50  0000 L CNN
F 2 "Capacitor_SMD:C_0805_2012Metric" H 800 2950 50  0001 C CNN
F 3 "~" H 800 2950 50  0001 C CNN
	1    800  2950
	1    0    0    1   
$EndComp
Wire Wire Line
	800  2800 600  2800
Wire Wire Line
	800  2850 800  2800
Wire Wire Line
	800  3050 600  3050
Wire Wire Line
	600  3050 600  3000
Wire Wire Line
	600  3100 600  3050
Connection ~ 600  3050
Wire Wire Line
	1700 1600 1850 1600
Wire Wire Line
	1850 1500 1700 1500
$Comp
L Device:R_Small R3
U 1 1 6188035C
P 1950 1500
F 0 "R3" V 1754 1500 50  0000 C CNN
F 1 "5.1k" V 1950 1500 50  0000 C CNN
F 2 "Resistor_SMD:R_1206_3216Metric" H 1950 1500 50  0001 C CNN
F 3 "~" H 1950 1500 50  0001 C CNN
	1    1950 1500
	0    1    1    0   
$EndComp
Wire Wire Line
	2100 1500 2050 1500
$Comp
L acheronSymbols:MXSwitch SW2
U 1 1 618C710C
P 7200 7350
F 0 "SW2" H 7150 7350 50  0000 L CNN
F 1 "Esc" H 7050 7300 39  0000 L CNN
F 2 "Button_Switch_Keyboard:SW_Cherry_MX_1.00u_PCB" H 7200 7350 50  0001 C CNN
F 3 "" H 7200 7350 50  0001 C CNN
	1    7200 7350
	1    0    0    -1  
$EndComp
$Comp
L Device:D_Small D1
U 1 1 618C7112
P 7200 6900
F 0 "D1" V 7154 6970 50  0000 L CNN
F 1 "D_Small" V 7245 6970 50  0000 L CNN
F 2 "Diode_THT:D_DO-15_P3.81mm_Vertical_AnodeUp" V 7200 6900 50  0001 C CNN
F 3 "~" V 7200 6900 50  0001 C CNN
	1    7200 6900
	0    1    1    0   
$EndComp
$Comp
L Device:D_Small D11
U 1 1 618C980E
P 8050 6900
F 0 "D11" V 8004 6970 50  0000 L CNN
F 1 "D_Small" V 8095 6970 50  0000 L CNN
F 2 "Diode_THT:D_DO-15_P3.81mm_Vertical_AnodeUp" V 8050 6900 50  0001 C CNN
F 3 "~" V 8050 6900 50  0001 C CNN
	1    8050 6900
	0    1    1    0   
$EndComp
$Comp
L Device:D_Small D21
U 1 1 618CB972
P 9750 6900
F 0 "D21" V 9704 6970 50  0000 L CNN
F 1 "D_Small" V 9795 6970 50  0000 L CNN
F 2 "Diode_THT:D_DO-15_P3.81mm_Vertical_AnodeUp" V 9750 6900 50  0001 C CNN
F 3 "~" V 9750 6900 50  0001 C CNN
	1    9750 6900
	0    1    1    0   
$EndComp
$Comp
L Device:D_Small D25
U 1 1 618CCBC6
P 10650 6900
F 0 "D25" V 10604 6970 50  0000 L CNN
F 1 "D_Small" V 10695 6970 50  0000 L CNN
F 2 "Diode_THT:D_DO-15_P3.81mm_Vertical_AnodeUp" V 10650 6900 50  0001 C CNN
F 3 "~" V 10650 6900 50  0001 C CNN
	1    10650 6900
	0    1    1    0   
$EndComp
$Comp
L Device:D_Small D29
U 1 1 618CDE9E
P 11550 6900
F 0 "D29" V 11504 6970 50  0000 L CNN
F 1 "D_Small" V 11595 6970 50  0000 L CNN
F 2 "Diode_THT:D_DO-15_P3.81mm_Vertical_AnodeUp" V 11550 6900 50  0001 C CNN
F 3 "~" V 11550 6900 50  0001 C CNN
	1    11550 6900
	0    1    1    0   
$EndComp
$Comp
L Device:D_Small D33
U 1 1 619C5202
P 12400 6900
F 0 "D33" V 12354 6970 50  0000 L CNN
F 1 "D_Small" V 12445 6970 50  0000 L CNN
F 2 "Diode_THT:D_DO-15_P3.81mm_Vertical_AnodeUp" V 12400 6900 50  0001 C CNN
F 3 "~" V 12400 6900 50  0001 C CNN
	1    12400 6900
	0    1    1    0   
$EndComp
$Comp
L Device:D_Small D38
U 1 1 619C520E
P 13150 6900
F 0 "D38" V 13104 6970 50  0000 L CNN
F 1 "D_Small" V 13195 6970 50  0000 L CNN
F 2 "Diode_THT:D_DO-15_P3.81mm_Vertical_AnodeUp" V 13150 6900 50  0001 C CNN
F 3 "~" V 13150 6900 50  0001 C CNN
	1    13150 6900
	0    1    1    0   
$EndComp
$Comp
L Device:D_Small D42
U 1 1 619C521A
P 14000 6900
F 0 "D42" V 13954 6970 50  0000 L CNN
F 1 "D_Small" V 14045 6970 50  0000 L CNN
F 2 "Diode_THT:D_DO-15_P3.81mm_Vertical_AnodeUp" V 14000 6900 50  0001 C CNN
F 3 "~" V 14000 6900 50  0001 C CNN
	1    14000 6900
	0    1    1    0   
$EndComp
$Comp
L acheronSymbols:MXSwitch SW47
U 1 1 619C5220
P 15750 7350
F 0 "SW47" H 15700 7350 50  0000 L CNN
F 1 "0" H 15600 7300 39  0000 L CNN
F 2 "Button_Switch_Keyboard:SW_Cherry_MX_1.00u_PCB" H 15750 7350 50  0001 C CNN
F 3 "" H 15750 7350 50  0001 C CNN
	1    15750 7350
	1    0    0    -1  
$EndComp
$Comp
L Device:D_Small D46
U 1 1 619C5226
P 15750 6900
F 0 "D46" V 15704 6970 50  0000 L CNN
F 1 "D_Small" V 15795 6970 50  0000 L CNN
F 2 "Diode_THT:D_DO-15_P3.81mm_Vertical_AnodeUp" V 15750 6900 50  0001 C CNN
F 3 "~" V 15750 6900 50  0001 C CNN
	1    15750 6900
	0    1    1    0   
$EndComp
$Comp
L acheronSymbols:MXSwitch SW51
U 1 1 619C522C
P 16650 7350
F 0 "SW51" H 16600 7350 50  0000 L CNN
F 1 "-" H 16500 7300 39  0000 L CNN
F 2 "Button_Switch_Keyboard:SW_Cherry_MX_1.00u_PCB" H 16650 7350 50  0001 C CNN
F 3 "" H 16650 7350 50  0001 C CNN
	1    16650 7350
	1    0    0    -1  
$EndComp
$Comp
L Device:D_Small D50
U 1 1 619C5232
P 16650 6900
F 0 "D50" V 16604 6970 50  0000 L CNN
F 1 "D_Small" V 16695 6970 50  0000 L CNN
F 2 "Diode_THT:D_DO-15_P3.81mm_Vertical_AnodeUp" V 16650 6900 50  0001 C CNN
F 3 "~" V 16650 6900 50  0001 C CNN
	1    16650 6900
	0    1    1    0   
$EndComp
$Comp
L acheronSymbols:MXSwitch SW3
U 1 1 61A202F6
P 7200 8550
F 0 "SW3" H 7150 8550 50  0000 L CNN
F 1 "Tab" H 7050 8500 39  0000 L CNN
F 2 "Button_Switch_Keyboard:SW_Cherry_MX_2.00u_PCB" H 7200 8550 50  0001 C CNN
F 3 "" H 7200 8550 50  0001 C CNN
	1    7200 8550
	1    0    0    -1  
$EndComp
$Comp
L Device:D_Small D2
U 1 1 61A202FC
P 7200 8100
F 0 "D2" V 7154 8170 50  0000 L CNN
F 1 "D_Small" V 7245 8170 50  0000 L CNN
F 2 "Diode_THT:D_DO-15_P3.81mm_Vertical_AnodeUp" V 7200 8100 50  0001 C CNN
F 3 "~" V 7200 8100 50  0001 C CNN
	1    7200 8100
	0    1    1    0   
$EndComp
$Comp
L Device:D_Small D3
U 1 1 61A2ACA4
P 7200 9300
F 0 "D3" V 7154 9370 50  0000 L CNN
F 1 "D_Small" V 7245 9370 50  0000 L CNN
F 2 "Diode_THT:D_DO-15_P3.81mm_Vertical_AnodeUp" V 7200 9300 50  0001 C CNN
F 3 "~" V 7200 9300 50  0001 C CNN
	1    7200 9300
	0    1    1    0   
$EndComp
$Comp
L acheronSymbols:MXSwitch SW14
U 1 1 61A2ACB6
P 9750 9750
F 0 "SW14" H 9700 9750 50  0000 L CNN
F 1 "S" H 9600 9700 39  0000 L CNN
F 2 "Button_Switch_Keyboard:SW_Cherry_MX_1.00u_PCB" H 9750 9750 50  0001 C CNN
F 3 "" H 9750 9750 50  0001 C CNN
	1    9750 9750
	1    0    0    -1  
$EndComp
$Comp
L Device:D_Small D13
U 1 1 61A2ACBC
P 9750 9300
F 0 "D13" V 9704 9370 50  0000 L CNN
F 1 "D_Small" V 9795 9370 50  0000 L CNN
F 2 "Diode_THT:D_DO-15_P3.81mm_Vertical_AnodeUp" V 9750 9300 50  0001 C CNN
F 3 "~" V 9750 9300 50  0001 C CNN
	1    9750 9300
	0    1    1    0   
$EndComp
$Comp
L Device:D_Small D18
U 1 1 61A2ACC8
P 10650 9300
F 0 "D18" V 10604 9370 50  0000 L CNN
F 1 "D_Small" V 10695 9370 50  0000 L CNN
F 2 "Diode_THT:D_DO-15_P3.81mm_Vertical_AnodeUp" V 10650 9300 50  0001 C CNN
F 3 "~" V 10650 9300 50  0001 C CNN
	1    10650 9300
	0    1    1    0   
$EndComp
$Comp
L acheronSymbols:MXSwitch SW24
U 1 1 61A2ACCE
P 11550 9750
F 0 "SW24" H 11500 9750 50  0000 L CNN
F 1 "F" H 11400 9700 39  0000 L CNN
F 2 "Button_Switch_Keyboard:SW_Cherry_MX_1.00u_PCB" H 11550 9750 50  0001 C CNN
F 3 "" H 11550 9750 50  0001 C CNN
	1    11550 9750
	1    0    0    -1  
$EndComp
$Comp
L Device:D_Small D23
U 1 1 61A2ACD4
P 11550 9300
F 0 "D23" V 11504 9370 50  0000 L CNN
F 1 "D_Small" V 11595 9370 50  0000 L CNN
F 2 "Diode_THT:D_DO-15_P3.81mm_Vertical_AnodeUp" V 11550 9300 50  0001 C CNN
F 3 "~" V 11550 9300 50  0001 C CNN
	1    11550 9300
	0    1    1    0   
$EndComp
$Comp
L acheronSymbols:MXSwitch SW28
U 1 1 61A2ACDA
P 12400 9750
F 0 "SW28" H 12350 9750 50  0000 L CNN
F 1 "G" H 12250 9700 39  0000 L CNN
F 2 "Button_Switch_Keyboard:SW_Cherry_MX_1.00u_PCB" H 12400 9750 50  0001 C CNN
F 3 "" H 12400 9750 50  0001 C CNN
	1    12400 9750
	1    0    0    -1  
$EndComp
$Comp
L Device:D_Small D27
U 1 1 61A2ACE0
P 12400 9300
F 0 "D27" V 12354 9370 50  0000 L CNN
F 1 "D_Small" V 12445 9370 50  0000 L CNN
F 2 "Diode_THT:D_DO-15_P3.81mm_Vertical_AnodeUp" V 12400 9300 50  0001 C CNN
F 3 "~" V 12400 9300 50  0001 C CNN
	1    12400 9300
	0    1    1    0   
$EndComp
$Comp
L acheronSymbols:MXSwitch SW32
U 1 1 61A2ACE6
P 13150 9750
F 0 "SW32" H 13100 9750 50  0000 L CNN
F 1 "H" H 13000 9700 39  0000 L CNN
F 2 "Button_Switch_Keyboard:SW_Cherry_MX_1.00u_PCB" H 13150 9750 50  0001 C CNN
F 3 "" H 13150 9750 50  0001 C CNN
	1    13150 9750
	1    0    0    -1  
$EndComp
$Comp
L Device:D_Small D31
U 1 1 61A2ACEC
P 13150 9300
F 0 "D31" V 13104 9370 50  0000 L CNN
F 1 "D_Small" V 13195 9370 50  0000 L CNN
F 2 "Diode_THT:D_DO-15_P3.81mm_Vertical_AnodeUp" V 13150 9300 50  0001 C CNN
F 3 "~" V 13150 9300 50  0001 C CNN
	1    13150 9300
	0    1    1    0   
$EndComp
$Comp
L acheronSymbols:MXSwitch SW36
U 1 1 61A2ACF2
P 14000 9750
F 0 "SW36" H 13950 9750 50  0000 L CNN
F 1 "J" H 13850 9700 39  0000 L CNN
F 2 "Button_Switch_Keyboard:SW_Cherry_MX_1.00u_PCB" H 14000 9750 50  0001 C CNN
F 3 "" H 14000 9750 50  0001 C CNN
	1    14000 9750
	1    0    0    -1  
$EndComp
$Comp
L Device:D_Small D35
U 1 1 61A2ACF8
P 14000 9300
F 0 "D35" V 13954 9370 50  0000 L CNN
F 1 "D_Small" V 14045 9370 50  0000 L CNN
F 2 "Diode_THT:D_DO-15_P3.81mm_Vertical_AnodeUp" V 14000 9300 50  0001 C CNN
F 3 "~" V 14000 9300 50  0001 C CNN
	1    14000 9300
	0    1    1    0   
$EndComp
$Comp
L acheronSymbols:MXSwitch SW41
U 1 1 61A2ACFE
P 14850 9750
F 0 "SW41" H 14800 9750 50  0000 L CNN
F 1 "K" H 14700 9700 39  0000 L CNN
F 2 "Button_Switch_Keyboard:SW_Cherry_MX_1.00u_PCB" H 14850 9750 50  0001 C CNN
F 3 "" H 14850 9750 50  0001 C CNN
	1    14850 9750
	1    0    0    -1  
$EndComp
$Comp
L Device:D_Small D40
U 1 1 61A2AD04
P 14850 9300
F 0 "D40" V 14804 9370 50  0000 L CNN
F 1 "D_Small" V 14895 9370 50  0000 L CNN
F 2 "Diode_THT:D_DO-15_P3.81mm_Vertical_AnodeUp" V 14850 9300 50  0001 C CNN
F 3 "~" V 14850 9300 50  0001 C CNN
	1    14850 9300
	0    1    1    0   
$EndComp
$Comp
L acheronSymbols:MXSwitch SW45
U 1 1 61A2AD0A
P 15750 9750
F 0 "SW45" H 15700 9750 50  0000 L CNN
F 1 "L" H 15600 9700 39  0000 L CNN
F 2 "Button_Switch_Keyboard:SW_Cherry_MX_1.00u_PCB" H 15750 9750 50  0001 C CNN
F 3 "" H 15750 9750 50  0001 C CNN
	1    15750 9750
	1    0    0    -1  
$EndComp
$Comp
L Device:D_Small D44
U 1 1 61A2AD10
P 15750 9300
F 0 "D44" V 15704 9370 50  0000 L CNN
F 1 "D_Small" V 15795 9370 50  0000 L CNN
F 2 "Diode_THT:D_DO-15_P3.81mm_Vertical_AnodeUp" V 15750 9300 50  0001 C CNN
F 3 "~" V 15750 9300 50  0001 C CNN
	1    15750 9300
	0    1    1    0   
$EndComp
$Comp
L acheronSymbols:MXSwitch SW49
U 1 1 61A2AD16
P 16650 9750
F 0 "SW49" H 16600 9750 50  0000 L CNN
F 1 ";" H 16500 9700 39  0000 L CNN
F 2 "Button_Switch_Keyboard:SW_Cherry_MX_1.00u_PCB" H 16650 9750 50  0001 C CNN
F 3 "" H 16650 9750 50  0001 C CNN
	1    16650 9750
	1    0    0    -1  
$EndComp
$Comp
L Device:D_Small D48
U 1 1 61A2AD1C
P 16650 9300
F 0 "D48" V 16604 9370 50  0000 L CNN
F 1 "D_Small" V 16695 9370 50  0000 L CNN
F 2 "Diode_THT:D_DO-15_P3.81mm_Vertical_AnodeUp" V 16650 9300 50  0001 C CNN
F 3 "~" V 16650 9300 50  0001 C CNN
	1    16650 9300
	0    1    1    0   
$EndComp
$Comp
L acheronSymbols:MXSwitch SW53
U 1 1 61A2AD22
P 17500 9750
F 0 "SW53" H 17450 9750 50  0000 L CNN
F 1 "\"" H 17350 9700 39  0000 L CNN
F 2 "Button_Switch_Keyboard:SW_Cherry_MX_1.00u_PCB" H 17500 9750 50  0001 C CNN
F 3 "" H 17500 9750 50  0001 C CNN
	1    17500 9750
	1    0    0    -1  
$EndComp
$Comp
L Device:D_Small D52
U 1 1 61A2AD28
P 17500 9300
F 0 "D52" V 17454 9370 50  0000 L CNN
F 1 "D_Small" V 17545 9370 50  0000 L CNN
F 2 "Diode_THT:D_DO-15_P3.81mm_Vertical_AnodeUp" V 17500 9300 50  0001 C CNN
F 3 "~" V 17500 9300 50  0001 C CNN
	1    17500 9300
	0    1    1    0   
$EndComp
$Comp
L acheronSymbols:MXSwitch Enter1
U 1 1 61A2AD3A
P 18300 9750
F 0 "Enter1" H 18250 9750 50  0000 L CNN
F 1 "Enter" H 18150 9700 39  0000 L CNN
F 2 "Button_Switch_Keyboard:SW_Cherry_MX_2.00u_PCB" H 18300 9750 50  0001 C CNN
F 3 "" H 18300 9750 50  0001 C CNN
	1    18300 9750
	1    0    0    -1  
$EndComp
$Comp
L acheronSymbols:MXSwitch SW5
U 1 1 61A32CA8
P 7200 10900
F 0 "SW5" H 7150 10900 50  0000 L CNN
F 1 "Shift" H 7050 10850 39  0000 L CNN
F 2 "Button_Switch_Keyboard:SW_Cherry_MX_2.00u_PCB" H 7200 10900 50  0001 C CNN
F 3 "" H 7200 10900 50  0001 C CNN
	1    7200 10900
	1    0    0    -1  
$EndComp
$Comp
L Device:D_Small D4
U 1 1 61A32CAE
P 7200 10450
F 0 "D4" V 7154 10520 50  0000 L CNN
F 1 "D_Small" V 7245 10520 50  0000 L CNN
F 2 "Diode_THT:D_DO-15_P3.81mm_Vertical_AnodeUp" V 7200 10450 50  0001 C CNN
F 3 "~" V 7200 10450 50  0001 C CNN
	1    7200 10450
	0    1    1    0   
$EndComp
$Comp
L acheronSymbols:MXSwitch SW10
U 1 1 61A32CB4
P 8900 10900
F 0 "SW10" H 8850 10900 50  0000 L CNN
F 1 "Z" H 8750 10850 39  0000 L CNN
F 2 "Button_Switch_Keyboard:SW_Cherry_MX_1.00u_PCB" H 8900 10900 50  0001 C CNN
F 3 "" H 8900 10900 50  0001 C CNN
	1    8900 10900
	1    0    0    -1  
$EndComp
$Comp
L Device:D_Small D9
U 1 1 61A32CBA
P 8900 10450
F 0 "D9" V 8854 10520 50  0000 L CNN
F 1 "D_Small" V 8945 10520 50  0000 L CNN
F 2 "Diode_THT:D_DO-15_P3.81mm_Vertical_AnodeUp" V 8900 10450 50  0001 C CNN
F 3 "~" V 8900 10450 50  0001 C CNN
	1    8900 10450
	0    1    1    0   
$EndComp
$Comp
L acheronSymbols:MXSwitch SW15
U 1 1 61A32CC0
P 9750 10900
F 0 "SW15" H 9700 10900 50  0000 L CNN
F 1 "X" H 9600 10850 39  0000 L CNN
F 2 "Button_Switch_Keyboard:SW_Cherry_MX_1.00u_PCB" H 9750 10900 50  0001 C CNN
F 3 "" H 9750 10900 50  0001 C CNN
	1    9750 10900
	1    0    0    -1  
$EndComp
$Comp
L Device:D_Small D14
U 1 1 61A32CC6
P 9750 10450
F 0 "D14" V 9704 10520 50  0000 L CNN
F 1 "D_Small" V 9795 10520 50  0000 L CNN
F 2 "Diode_THT:D_DO-15_P3.81mm_Vertical_AnodeUp" V 9750 10450 50  0001 C CNN
F 3 "~" V 9750 10450 50  0001 C CNN
	1    9750 10450
	0    1    1    0   
$EndComp
$Comp
L Device:D_Small D19
U 1 1 61A32CD2
P 10650 10450
F 0 "D19" V 10604 10520 50  0000 L CNN
F 1 "D_Small" V 10695 10520 50  0000 L CNN
F 2 "Diode_THT:D_DO-15_P3.81mm_Vertical_AnodeUp" V 10650 10450 50  0001 C CNN
F 3 "~" V 10650 10450 50  0001 C CNN
	1    10650 10450
	0    1    1    0   
$EndComp
$Comp
L acheronSymbols:MXSwitch SW25
U 1 1 61A32CD8
P 11550 10900
F 0 "SW25" H 11500 10900 50  0000 L CNN
F 1 "V" H 11400 10850 39  0000 L CNN
F 2 "Button_Switch_Keyboard:SW_Cherry_MX_1.00u_PCB" H 11550 10900 50  0001 C CNN
F 3 "" H 11550 10900 50  0001 C CNN
	1    11550 10900
	1    0    0    -1  
$EndComp
$Comp
L Device:D_Small D24
U 1 1 61A32CDE
P 11550 10450
F 0 "D24" V 11504 10520 50  0000 L CNN
F 1 "D_Small" V 11595 10520 50  0000 L CNN
F 2 "Diode_THT:D_DO-15_P3.81mm_Vertical_AnodeUp" V 11550 10450 50  0001 C CNN
F 3 "~" V 11550 10450 50  0001 C CNN
	1    11550 10450
	0    1    1    0   
$EndComp
$Comp
L acheronSymbols:MXSwitch SW29
U 1 1 61A32CE4
P 12400 10900
F 0 "SW29" H 12350 10900 50  0000 L CNN
F 1 "B" H 12250 10850 39  0000 L CNN
F 2 "Button_Switch_Keyboard:SW_Cherry_MX_1.00u_PCB" H 12400 10900 50  0001 C CNN
F 3 "" H 12400 10900 50  0001 C CNN
	1    12400 10900
	1    0    0    -1  
$EndComp
$Comp
L Device:D_Small D28
U 1 1 61A32CEA
P 12400 10450
F 0 "D28" V 12354 10520 50  0000 L CNN
F 1 "D_Small" V 12445 10520 50  0000 L CNN
F 2 "Diode_THT:D_DO-15_P3.81mm_Vertical_AnodeUp" V 12400 10450 50  0001 C CNN
F 3 "~" V 12400 10450 50  0001 C CNN
	1    12400 10450
	0    1    1    0   
$EndComp
$Comp
L acheronSymbols:MXSwitch SW33
U 1 1 61A32CF0
P 13150 10900
F 0 "SW33" H 13100 10900 50  0000 L CNN
F 1 "N" H 13000 10850 39  0000 L CNN
F 2 "Button_Switch_Keyboard:SW_Cherry_MX_1.00u_PCB" H 13150 10900 50  0001 C CNN
F 3 "" H 13150 10900 50  0001 C CNN
	1    13150 10900
	1    0    0    -1  
$EndComp
$Comp
L Device:D_Small D32
U 1 1 61A32CF6
P 13150 10450
F 0 "D32" V 13104 10520 50  0000 L CNN
F 1 "D_Small" V 13195 10520 50  0000 L CNN
F 2 "Diode_THT:D_DO-15_P3.81mm_Vertical_AnodeUp" V 13150 10450 50  0001 C CNN
F 3 "~" V 13150 10450 50  0001 C CNN
	1    13150 10450
	0    1    1    0   
$EndComp
$Comp
L acheronSymbols:MXSwitch SW37
U 1 1 61A32CFC
P 14000 10900
F 0 "SW37" H 13950 10900 50  0000 L CNN
F 1 "M" H 13850 10850 39  0000 L CNN
F 2 "Button_Switch_Keyboard:SW_Cherry_MX_1.00u_PCB" H 14000 10900 50  0001 C CNN
F 3 "" H 14000 10900 50  0001 C CNN
	1    14000 10900
	1    0    0    -1  
$EndComp
$Comp
L Device:D_Small D36
U 1 1 61A32D02
P 14000 10450
F 0 "D36" V 13954 10520 50  0000 L CNN
F 1 "D_Small" V 14045 10520 50  0000 L CNN
F 2 "Diode_THT:D_DO-15_P3.81mm_Vertical_AnodeUp" V 14000 10450 50  0001 C CNN
F 3 "~" V 14000 10450 50  0001 C CNN
	1    14000 10450
	0    1    1    0   
$EndComp
$Comp
L acheronSymbols:MXSwitch SW42
U 1 1 61A32D08
P 14850 10900
F 0 "SW42" H 14800 10900 50  0000 L CNN
F 1 "<" H 14700 10850 39  0000 L CNN
F 2 "Button_Switch_Keyboard:SW_Cherry_MX_1.00u_PCB" H 14850 10900 50  0001 C CNN
F 3 "" H 14850 10900 50  0001 C CNN
	1    14850 10900
	1    0    0    -1  
$EndComp
$Comp
L Device:D_Small D41
U 1 1 61A32D0E
P 14850 10450
F 0 "D41" V 14804 10520 50  0000 L CNN
F 1 "D_Small" V 14895 10520 50  0000 L CNN
F 2 "Diode_THT:D_DO-15_P3.81mm_Vertical_AnodeUp" V 14850 10450 50  0001 C CNN
F 3 "~" V 14850 10450 50  0001 C CNN
	1    14850 10450
	0    1    1    0   
$EndComp
$Comp
L acheronSymbols:MXSwitch SW46
U 1 1 61A32D14
P 15750 10900
F 0 "SW46" H 15700 10900 50  0000 L CNN
F 1 ">" H 15600 10850 39  0000 L CNN
F 2 "Button_Switch_Keyboard:SW_Cherry_MX_1.00u_PCB" H 15750 10900 50  0001 C CNN
F 3 "" H 15750 10900 50  0001 C CNN
	1    15750 10900
	1    0    0    -1  
$EndComp
$Comp
L Device:D_Small D45
U 1 1 61A32D1A
P 15750 10450
F 0 "D45" V 15704 10520 50  0000 L CNN
F 1 "D_Small" V 15795 10520 50  0000 L CNN
F 2 "Diode_THT:D_DO-15_P3.81mm_Vertical_AnodeUp" V 15750 10450 50  0001 C CNN
F 3 "~" V 15750 10450 50  0001 C CNN
	1    15750 10450
	0    1    1    0   
$EndComp
$Comp
L acheronSymbols:MXSwitch SW50
U 1 1 61A32D20
P 16650 10900
F 0 "SW50" H 16600 10900 50  0000 L CNN
F 1 "?" H 16500 10850 39  0000 L CNN
F 2 "Button_Switch_Keyboard:SW_Cherry_MX_1.00u_PCB" H 16650 10900 50  0001 C CNN
F 3 "" H 16650 10900 50  0001 C CNN
	1    16650 10900
	1    0    0    -1  
$EndComp
$Comp
L Device:D_Small D49
U 1 1 61A32D26
P 16650 10450
F 0 "D49" V 16604 10520 50  0000 L CNN
F 1 "D_Small" V 16695 10520 50  0000 L CNN
F 2 "Diode_THT:D_DO-15_P3.81mm_Vertical_AnodeUp" V 16650 10450 50  0001 C CNN
F 3 "~" V 16650 10450 50  0001 C CNN
	1    16650 10450
	0    1    1    0   
$EndComp
$Comp
L acheronSymbols:MXSwitch SW54
U 1 1 61A32D2C
P 17500 10900
F 0 "SW54" H 17450 10900 50  0000 L CNN
F 1 " " H 17350 10850 39  0000 L CNN
F 2 "Button_Switch_Keyboard:SW_Cherry_MX_1.00u_PCB" H 17500 10900 50  0001 C CNN
F 3 "" H 17500 10900 50  0001 C CNN
	1    17500 10900
	1    0    0    -1  
$EndComp
$Comp
L Device:D_Small D53
U 1 1 61A32D32
P 17500 10450
F 0 "D53" V 17454 10520 50  0000 L CNN
F 1 "D_Small" V 17545 10520 50  0000 L CNN
F 2 "Diode_THT:D_DO-15_P3.81mm_Vertical_AnodeUp" V 17500 10450 50  0001 C CNN
F 3 "~" V 17500 10450 50  0001 C CNN
	1    17500 10450
	0    1    1    0   
$EndComp
$Comp
L acheronSymbols:MXSwitch Shift1
U 1 1 61A32D44
P 18300 10900
F 0 "Shift1" H 18250 10900 50  0000 L CNN
F 1 "Shift" H 18150 10850 39  0000 L CNN
F 2 "Button_Switch_Keyboard:SW_Cherry_MX_2.00u_PCB" H 18300 10900 50  0001 C CNN
F 3 "" H 18300 10900 50  0001 C CNN
	1    18300 10900
	1    0    0    -1  
$EndComp
$Comp
L Device:D_Small D63
U 1 1 61A32D4A
P 18300 10450
F 0 "D63" V 18254 10520 50  0000 L CNN
F 1 "D_Small" V 18345 10520 50  0000 L CNN
F 2 "Diode_THT:D_DO-15_P3.81mm_Vertical_AnodeUp" V 18300 10450 50  0001 C CNN
F 3 "~" V 18300 10450 50  0001 C CNN
	1    18300 10450
	0    1    1    0   
$EndComp
Connection ~ 6850 8550
Wire Wire Line
	6850 8550 6850 9750
Connection ~ 6850 9750
Wire Wire Line
	6900 12050 6850 12050
Connection ~ 8900 11500
Connection ~ 8050 11500
Wire Wire Line
	8900 11500 8050 11500
Wire Wire Line
	7200 11500 8050 11500
$Comp
L Device:D_Small D64
U 1 1 61A380C8
P 18300 11600
F 0 "D64" V 18254 11670 50  0000 L CNN
F 1 "D_Small" V 18345 11670 50  0000 L CNN
F 2 "Diode_THT:D_DO-15_P3.81mm_Vertical_AnodeUp" V 18300 11600 50  0001 C CNN
F 3 "~" V 18300 11600 50  0001 C CNN
	1    18300 11600
	0    1    1    0   
$EndComp
$Comp
L acheronSymbols:MXSwitch SW65
U 1 1 61A380C2
P 18300 12050
F 0 "SW65" H 18250 12050 50  0000 L CNN
F 1 "Win" H 18150 12000 39  0000 L CNN
F 2 "Button_Switch_Keyboard:SW_Cherry_MX_1.00u_PCB" H 18300 12050 50  0001 C CNN
F 3 "" H 18300 12050 50  0001 C CNN
	1    18300 12050
	1    0    0    -1  
$EndComp
$Comp
L Device:D_Small D59
U 1 1 61A380BC
P 17500 11600
F 0 "D59" V 17454 11670 50  0000 L CNN
F 1 "D_Small" V 17545 11670 50  0000 L CNN
F 2 "Diode_THT:D_DO-15_P3.81mm_Vertical_AnodeUp" V 17500 11600 50  0001 C CNN
F 3 "~" V 17500 11600 50  0001 C CNN
	1    17500 11600
	0    1    1    0   
$EndComp
$Comp
L acheronSymbols:MXSwitch SW60
U 1 1 61A380B6
P 17500 12050
F 0 "SW60" H 17450 12050 50  0000 L CNN
F 1 "MOD(2)" H 17350 12000 39  0000 L CNN
F 2 "Button_Switch_Keyboard:SW_Cherry_MX_1.00u_PCB" H 17500 12050 50  0001 C CNN
F 3 "" H 17500 12050 50  0001 C CNN
	1    17500 12050
	1    0    0    -1  
$EndComp
$Comp
L Device:D_Small D54
U 1 1 61A380B0
P 16650 11600
F 0 "D54" V 16604 11670 50  0000 L CNN
F 1 "D_Small" V 16695 11670 50  0000 L CNN
F 2 "Diode_THT:D_DO-15_P3.81mm_Vertical_AnodeUp" V 16650 11600 50  0001 C CNN
F 3 "~" V 16650 11600 50  0001 C CNN
	1    16650 11600
	0    1    1    0   
$EndComp
$Comp
L acheronSymbols:MXSwitch SW55
U 1 1 61A380AA
P 16650 12050
F 0 "SW55" H 16600 12050 50  0000 L CNN
F 1 "Alt" H 16500 12000 39  0000 L CNN
F 2 "Button_Switch_Keyboard:SW_Cherry_MX_1.00u_PCB" H 16650 12050 50  0001 C CNN
F 3 "" H 16650 12050 50  0001 C CNN
	1    16650 12050
	1    0    0    -1  
$EndComp
$Comp
L Device:D_Small D37
U 1 1 61A38080
P 13150 11600
F 0 "D37" V 13104 11670 50  0000 L CNN
F 1 "D_Small" V 13195 11670 50  0000 L CNN
F 2 "Diode_THT:D_DO-15_P3.81mm_Vertical_AnodeUp" V 13150 11600 50  0001 C CNN
F 3 "~" V 13150 11600 50  0001 C CNN
	1    13150 11600
	0    1    1    0   
$EndComp
$Comp
L acheronSymbols:MXSwitch SW38
U 1 1 61A3807A
P 13150 12050
F 0 "SW38" H 13100 12050 50  0000 L CNN
F 1 "Space" H 13000 12000 39  0000 L CNN
F 2 "acheronKeyboardSwitches:MX700" H 13150 12050 50  0001 C CNN
F 3 "" H 13150 12050 50  0001 C CNN
	1    13150 12050
	1    0    0    -1  
$EndComp
$Comp
L Device:D_Small D20
U 1 1 61A38050
P 9750 11600
F 0 "D20" V 9704 11670 50  0000 L CNN
F 1 "D_Small" V 9795 11670 50  0000 L CNN
F 2 "Diode_THT:D_DO-15_P3.81mm_Vertical_AnodeUp" V 9750 11600 50  0001 C CNN
F 3 "~" V 9750 11600 50  0001 C CNN
	1    9750 11600
	0    1    1    0   
$EndComp
$Comp
L acheronSymbols:MXSwitch SW21
U 1 1 61A3804A
P 9750 12050
F 0 "SW21" H 9700 12050 50  0000 L CNN
F 1 "Alt" H 9600 12000 39  0000 L CNN
F 2 "Button_Switch_Keyboard:SW_Cherry_MX_1.00u_PCB" H 9750 12050 50  0001 C CNN
F 3 "" H 9750 12050 50  0001 C CNN
	1    9750 12050
	1    0    0    -1  
$EndComp
$Comp
L Device:D_Small D15
U 1 1 61A38044
P 8900 11600
F 0 "D15" V 8854 11670 50  0000 L CNN
F 1 "D_Small" V 8945 11670 50  0000 L CNN
F 2 "Diode_THT:D_DO-15_P3.81mm_Vertical_AnodeUp" V 8900 11600 50  0001 C CNN
F 3 "~" V 8900 11600 50  0001 C CNN
	1    8900 11600
	0    1    1    0   
$EndComp
$Comp
L acheronSymbols:MXSwitch SW16
U 1 1 61A3803E
P 8900 12050
F 0 "SW16" H 8850 12050 50  0000 L CNN
F 1 "MOD(1)" H 8750 12000 39  0000 L CNN
F 2 "Button_Switch_Keyboard:SW_Cherry_MX_1.00u_PCB" H 8900 12050 50  0001 C CNN
F 3 "" H 8900 12050 50  0001 C CNN
	1    8900 12050
	1    0    0    -1  
$EndComp
$Comp
L Device:D_Small D10
U 1 1 61A38038
P 8050 11600
F 0 "D10" V 8004 11670 50  0000 L CNN
F 1 "D_Small" V 8095 11670 50  0000 L CNN
F 2 "Diode_THT:D_DO-15_P3.81mm_Vertical_AnodeUp" V 8050 11600 50  0001 C CNN
F 3 "~" V 8050 11600 50  0001 C CNN
	1    8050 11600
	0    1    1    0   
$EndComp
$Comp
L Device:D_Small D5
U 1 1 61A3802C
P 7200 11600
F 0 "D5" V 7154 11670 50  0000 L CNN
F 1 "D_Small" V 7245 11670 50  0000 L CNN
F 2 "Diode_THT:D_DO-15_P3.81mm_Vertical_AnodeUp" V 7200 11600 50  0001 C CNN
F 3 "~" V 7200 11600 50  0001 C CNN
	1    7200 11600
	0    1    1    0   
$EndComp
$Comp
L acheronSymbols:MXSwitch SW6
U 1 1 61A38026
P 7200 12050
F 0 "SW6" H 7150 12050 50  0000 L CNN
F 1 "Ctrl" H 7050 12000 39  0000 L CNN
F 2 "Button_Switch_Keyboard:SW_Cherry_MX_1.00u_PCB" H 7200 12050 50  0001 C CNN
F 3 "" H 7200 12050 50  0001 C CNN
	1    7200 12050
	1    0    0    -1  
$EndComp
Connection ~ 6850 12050
Wire Wire Line
	6850 9750 6850 10900
Wire Wire Line
	6850 10900 6850 12050
Connection ~ 6850 10900
$Comp
L acheronSymbols:MXSwitch SW11
U 1 1 61A38032
P 8050 12050
F 0 "SW11" H 8000 12050 50  0000 L CNN
F 1 "Win" H 7900 12000 39  0000 L CNN
F 2 "Button_Switch_Keyboard:SW_Cherry_MX_1.00u_PCB" H 8050 12050 50  0001 C CNN
F 3 "" H 8050 12050 50  0001 C CNN
	1    8050 12050
	1    0    0    -1  
$EndComp
Text GLabel 6650 6800 0    50   Input ~ 0
Row1
Text GLabel 6650 8000 0    50   Input ~ 0
Row2
Text GLabel 6650 9200 0    50   Input ~ 0
Row3
Connection ~ 7200 11500
Wire Wire Line
	6650 8000 7200 8000
Connection ~ 7200 8000
Wire Wire Line
	6650 6800 7200 6800
Connection ~ 7200 6800
Text GLabel 6650 10350 0    50   Input ~ 0
Row4
Text GLabel 6650 11500 0    50   Input ~ 0
Row5
Wire Wire Line
	6650 11500 7200 11500
Wire Wire Line
	6650 9200 7200 9200
Text GLabel 6850 6500 1    50   Input ~ 0
Col1
Text GLabel 7700 6500 1    50   Input ~ 0
Col2
Text GLabel 8550 6500 1    50   Input ~ 0
Col3
Text GLabel 9400 6500 1    50   Input ~ 0
Col4
Text GLabel 10300 6500 1    50   Input ~ 0
Col5
Text GLabel 11200 6500 1    50   Input ~ 0
Col6
Text GLabel 12050 6500 1    50   Input ~ 0
Col7
Text GLabel 12800 6500 1    50   Input ~ 0
Col8
Text GLabel 13650 6500 1    50   Input ~ 0
Col9
Text GLabel 14500 6500 1    50   Input ~ 0
Col10
Text GLabel 15400 6500 1    50   Input ~ 0
Col11
Text GLabel 16300 6500 1    50   Input ~ 0
Col12
Text GLabel 17150 6500 1    50   Input ~ 0
Col13
Text GLabel 17950 6500 1    50   Input ~ 0
Col14
Wire Wire Line
	6850 7350 6850 8550
Wire Wire Line
	6850 7350 6850 6500
Connection ~ 6850 7350
$Comp
L acheronSymbols:MXSwitch SW1
U 1 1 621C365C
P 4500 1800
F 0 "SW1" V 4400 1700 50  0000 L CNN
F 1 "RST" V 4500 1650 39  0000 L CNN
F 2 "Button_Switch_Keyboard:SW_Cherry_MX_1.00u_PCB" H 4500 1800 50  0001 C CNN
F 3 "" H 4500 1800 50  0001 C CNN
	1    4500 1800
	0    1    1    0   
$EndComp
Wire Wire Line
	4900 1800 4850 1800
Wire Wire Line
	4500 1400 4500 1450
Text GLabel 3350 6350 2    50   Input ~ 0
Col1
Text GLabel 3350 4850 2    50   Input ~ 0
Col4
Text GLabel 3350 5650 2    50   Input ~ 0
Col7
Text GLabel 3350 5850 2    50   Input ~ 0
Col8
Text GLabel 3350 6550 2    50   Input ~ 0
Col12
$Comp
L Device:D_Small D8
U 1 1 61A2ACB0
P 8900 9300
F 0 "D8" V 8854 9370 50  0000 L CNN
F 1 "D_Small" V 8945 9370 50  0000 L CNN
F 2 "Diode_THT:D_DO-15_P3.81mm_Vertical_AnodeUp" V 8900 9300 50  0001 C CNN
F 3 "~" V 8900 9300 50  0001 C CNN
	1    8900 9300
	0    1    1    0   
$EndComp
$Comp
L acheronSymbols:MXSwitch SW9
U 1 1 61A2ACAA
P 8900 9750
F 0 "SW9" H 8850 9750 50  0000 L CNN
F 1 "A" H 8750 9700 39  0000 L CNN
F 2 "Button_Switch_Keyboard:SW_Cherry_MX_1.00u_PCB" H 8900 9750 50  0001 C CNN
F 3 "" H 8900 9750 50  0001 C CNN
	1    8900 9750
	1    0    0    -1  
$EndComp
$Comp
L acheronSymbols:MXSwitch SW4
U 1 1 61A2AC9E
P 7200 9750
F 0 "SW4" H 7150 9750 50  0000 L CNN
F 1 "Caps " H 7050 9700 39  0000 L CNN
F 2 "Button_Switch_Keyboard:SW_Cherry_MX_2.00u_PCB" H 7200 9750 50  0001 C CNN
F 3 "" H 7200 9750 50  0001 C CNN
	1    7200 9750
	1    0    0    -1  
$EndComp
$Comp
L acheronSymbols:MXSwitch SW68
U 1 1 61A380CE
P 19150 12050
F 0 "SW68" H 19100 12050 50  0000 L CNN
F 1 "Ctrl" H 19000 12000 39  0000 L CNN
F 2 "Button_Switch_Keyboard:SW_Cherry_MX_1.00u_PCB" H 19150 12050 50  0001 C CNN
F 3 "" H 19150 12050 50  0001 C CNN
	1    19150 12050
	1    0    0    -1  
$EndComp
$Comp
L Device:D_Small D67
U 1 1 61A380D4
P 19150 11600
F 0 "D67" V 19104 11670 50  0000 L CNN
F 1 "D_Small" V 19195 11670 50  0000 L CNN
F 2 "Diode_THT:D_DO-15_P3.81mm_Vertical_AnodeUp" V 19150 11600 50  0001 C CNN
F 3 "~" V 19150 11600 50  0001 C CNN
	1    19150 11600
	0    1    1    0   
$EndComp
$Comp
L Device:D_Small D56
U 1 1 62356207
P 18300 6900
F 0 "D56" V 18254 6970 50  0000 L CNN
F 1 "D_Small" V 18345 6970 50  0000 L CNN
F 2 "Diode_THT:D_DO-15_P3.81mm_Vertical_AnodeUp" V 18300 6900 50  0001 C CNN
F 3 "~" V 18300 6900 50  0001 C CNN
	1    18300 6900
	0    1    1    0   
$EndComp
$Comp
L acheronSymbols:MXSwitch SW57
U 1 1 62356210
P 18300 7350
F 0 "SW57" H 18250 7350 50  0000 L CNN
F 1 "BackSpace" H 18150 7300 39  0000 L CNN
F 2 "Button_Switch_Keyboard:SW_Cherry_MX_2.00u_PCB" H 18300 7350 50  0001 C CNN
F 3 "" H 18300 7350 50  0001 C CNN
	1    18300 7350
	1    0    0    -1  
$EndComp
$Comp
L acheronSymbols:MXSwitch SW56
U 1 1 623D1387
P 17500 7350
F 0 "SW56" H 17450 7350 50  0000 L CNN
F 1 "+" H 17350 7300 39  0000 L CNN
F 2 "Button_Switch_Keyboard:SW_Cherry_MX_1.00u_PCB" H 17500 7350 50  0001 C CNN
F 3 "" H 17500 7350 50  0001 C CNN
	1    17500 7350
	1    0    0    -1  
$EndComp
$Comp
L Device:D_Small D55
U 1 1 623D138D
P 17500 6900
F 0 "D55" V 17454 6970 50  0000 L CNN
F 1 "D_Small" V 17545 6970 50  0000 L CNN
F 2 "Diode_THT:D_DO-15_P3.81mm_Vertical_AnodeUp" V 17500 6900 50  0001 C CNN
F 3 "~" V 17500 6900 50  0001 C CNN
	1    17500 6900
	0    1    1    0   
$EndComp
$Comp
L acheronSymbols:MXSwitch SW43
U 1 1 619C5214
P 14850 7350
F 0 "SW43" H 14800 7350 50  0000 L CNN
F 1 "9" H 14700 7300 39  0000 L CNN
F 2 "Button_Switch_Keyboard:SW_Cherry_MX_1.00u_PCB" H 14850 7350 50  0001 C CNN
F 3 "" H 14850 7350 50  0001 C CNN
	1    14850 7350
	1    0    0    -1  
$EndComp
$Comp
L acheronSymbols:MXSwitch SW39
U 1 1 619C5208
P 14000 7350
F 0 "SW39" H 13950 7350 50  0000 L CNN
F 1 "8" H 13850 7300 39  0000 L CNN
F 2 "Button_Switch_Keyboard:SW_Cherry_MX_1.00u_PCB" H 14000 7350 50  0001 C CNN
F 3 "" H 14000 7350 50  0001 C CNN
	1    14000 7350
	1    0    0    -1  
$EndComp
$Comp
L acheronSymbols:MXSwitch SW34
U 1 1 619C51FC
P 13150 7350
F 0 "SW34" H 13100 7350 50  0000 L CNN
F 1 "7" H 13000 7300 39  0000 L CNN
F 2 "Button_Switch_Keyboard:SW_Cherry_MX_1.00u_PCB" H 13150 7350 50  0001 C CNN
F 3 "" H 13150 7350 50  0001 C CNN
	1    13150 7350
	1    0    0    -1  
$EndComp
$Comp
L acheronSymbols:MXSwitch SW30
U 1 1 618CDE98
P 12400 7350
F 0 "SW30" H 12350 7350 50  0000 L CNN
F 1 "6" H 12250 7300 39  0000 L CNN
F 2 "Button_Switch_Keyboard:SW_Cherry_MX_1.00u_PCB" H 12400 7350 50  0001 C CNN
F 3 "" H 12400 7350 50  0001 C CNN
	1    12400 7350
	1    0    0    -1  
$EndComp
$Comp
L acheronSymbols:MXSwitch SW26
U 1 1 618CCBC0
P 11550 7350
F 0 "SW26" H 11500 7350 50  0000 L CNN
F 1 "5" H 11400 7300 39  0000 L CNN
F 2 "Button_Switch_Keyboard:SW_Cherry_MX_1.00u_PCB" H 11550 7350 50  0001 C CNN
F 3 "" H 11550 7350 50  0001 C CNN
	1    11550 7350
	1    0    0    -1  
$EndComp
$Comp
L acheronSymbols:MXSwitch SW17
U 1 1 618CA892
P 9750 7350
F 0 "SW17" H 9700 7350 50  0000 L CNN
F 1 "3" H 9600 7300 39  0000 L CNN
F 2 "Button_Switch_Keyboard:SW_Cherry_MX_1.00u_PCB" H 9750 7350 50  0001 C CNN
F 3 "" H 9750 7350 50  0001 C CNN
	1    9750 7350
	1    0    0    -1  
$EndComp
$Comp
L acheronSymbols:MXSwitch SW7
U 1 1 618C84AE
P 8050 7350
F 0 "SW7" H 8000 7350 50  0000 L CNN
F 1 "1" H 7900 7300 39  0000 L CNN
F 2 "Button_Switch_Keyboard:SW_Cherry_MX_1.00u_PCB" H 8050 7350 50  0001 C CNN
F 3 "" H 8050 7350 50  0001 C CNN
	1    8050 7350
	1    0    0    -1  
$EndComp
Wire Wire Line
	7700 6500 7700 7350
Wire Wire Line
	7200 6800 8050 6800
$Comp
L Device:D_Small D6
U 1 1 624A5B9A
P 14850 6900
F 0 "D6" V 14804 6970 50  0000 L CNN
F 1 "D_Small" V 14895 6970 50  0000 L CNN
F 2 "Diode_THT:D_DO-15_P3.81mm_Vertical_AnodeUp" V 14850 6900 50  0001 C CNN
F 3 "~" V 14850 6900 50  0001 C CNN
	1    14850 6900
	0    1    1    0   
$EndComp
Connection ~ 7700 7350
Connection ~ 8050 6800
Connection ~ 10650 6800
Wire Wire Line
	11200 6500 11200 7350
Wire Wire Line
	12050 6500 12050 7350
Connection ~ 13150 6800
Wire Wire Line
	13150 6800 14000 6800
Wire Wire Line
	13650 6500 13650 7350
Connection ~ 14000 6800
Wire Wire Line
	14000 6800 14850 6800
Connection ~ 14850 6800
Wire Wire Line
	14850 6800 15750 6800
Connection ~ 15750 6800
Wire Wire Line
	15750 6800 16650 6800
Connection ~ 16650 6800
Wire Wire Line
	16650 6800 17500 6800
Connection ~ 17500 6800
Wire Wire Line
	17500 6800 18300 6800
Wire Wire Line
	17950 6500 17950 7350
Connection ~ 17500 11500
$Comp
L Device:R_Small R7
U 1 1 62885C88
P 4900 2250
F 0 "R7" H 4959 2296 50  0000 L CNN
F 1 "330" H 4959 2205 50  0000 L CNN
F 2 "Resistor_SMD:R_1206_3216Metric" H 4900 2250 50  0001 C CNN
F 3 "~" H 4900 2250 50  0001 C CNN
	1    4900 2250
	-1   0    0    1   
$EndComp
Wire Wire Line
	8050 6800 8900 6800
$Comp
L acheronSymbols:MXSwitch SW12
U 1 1 618C9808
P 8900 7350
F 0 "SW12" H 8850 7350 50  0000 L CNN
F 1 "2" H 8750 7300 39  0000 L CNN
F 2 "Button_Switch_Keyboard:SW_Cherry_MX_1.00u_PCB" H 8900 7350 50  0001 C CNN
F 3 "" H 8900 7350 50  0001 C CNN
	1    8900 7350
	1    0    0    -1  
$EndComp
$Comp
L Device:D_Small D16
U 1 1 618CA898
P 8900 6900
F 0 "D16" V 8854 6970 50  0000 L CNN
F 1 "D_Small" V 8945 6970 50  0000 L CNN
F 2 "Diode_THT:D_DO-15_P3.81mm_Vertical_AnodeUp" V 8900 6900 50  0001 C CNN
F 3 "~" V 8900 6900 50  0001 C CNN
	1    8900 6900
	0    1    1    0   
$EndComp
Connection ~ 8900 6800
Connection ~ 9750 6800
Connection ~ 11550 6800
Wire Wire Line
	10650 6800 11550 6800
Connection ~ 12400 6800
Wire Wire Line
	12400 6800 13150 6800
Wire Wire Line
	11550 6800 12400 6800
Wire Wire Line
	9750 6800 10650 6800
Wire Wire Line
	8900 6800 9750 6800
Wire Wire Line
	9750 11500 8900 11500
Connection ~ 12800 7350
$Comp
L acheronSymbols:MXSwitch SW52
U 1 1 61A2037A
P 17500 8550
F 0 "SW52" H 17450 8550 50  0000 L CNN
F 1 "{" H 17350 8500 39  0000 L CNN
F 2 "Button_Switch_Keyboard:SW_Cherry_MX_1.00u_PCB" H 17500 8550 50  0001 C CNN
F 3 "" H 17500 8550 50  0001 C CNN
	1    17500 8550
	1    0    0    -1  
$EndComp
$Comp
L acheronSymbols:MXSwitch SW62
U 1 1 61A20392
P 18300 8550
F 0 "SW62" H 18250 8550 50  0000 L CNN
F 1 "}" H 18150 8500 39  0000 L CNN
F 2 "Button_Switch_Keyboard:SW_Cherry_MX_1.00u_PCB" H 18300 8550 50  0001 C CNN
F 3 "" H 18300 8550 50  0001 C CNN
	1    18300 8550
	1    0    0    -1  
$EndComp
$Comp
L acheronSymbols:MXSwitch SW67
U 1 1 61A2039E
P 19150 8550
F 0 "SW67" H 19100 8550 50  0000 L CNN
F 1 "|" H 19000 8500 39  0000 L CNN
F 2 "Button_Switch_Keyboard:SW_Cherry_MX_1.00u_PCB" H 19150 8550 50  0001 C CNN
F 3 "" H 19150 8550 50  0001 C CNN
	1    19150 8550
	1    0    0    -1  
$EndComp
$Comp
L Device:D_Small D66
U 1 1 61A203A4
P 19150 8100
F 0 "D66" V 19104 8170 50  0000 L CNN
F 1 "D_Small" V 19195 8170 50  0000 L CNN
F 2 "Diode_THT:D_DO-15_P3.81mm_Vertical_AnodeUp" V 19150 8100 50  0001 C CNN
F 3 "~" V 19150 8100 50  0001 C CNN
	1    19150 8100
	0    1    1    0   
$EndComp
$Comp
L Device:D_Small D61
U 1 1 61A20398
P 18300 8100
F 0 "D61" V 18254 8170 50  0000 L CNN
F 1 "D_Small" V 18345 8170 50  0000 L CNN
F 2 "Diode_THT:D_DO-15_P3.81mm_Vertical_AnodeUp" V 18300 8100 50  0001 C CNN
F 3 "~" V 18300 8100 50  0001 C CNN
	1    18300 8100
	0    1    1    0   
$EndComp
$Comp
L Device:D_Small D51
U 1 1 61A20380
P 17500 8100
F 0 "D51" V 17454 8170 50  0000 L CNN
F 1 "D_Small" V 17545 8170 50  0000 L CNN
F 2 "Diode_THT:D_DO-15_P3.81mm_Vertical_AnodeUp" V 17500 8100 50  0001 C CNN
F 3 "~" V 17500 8100 50  0001 C CNN
	1    17500 8100
	0    1    1    0   
$EndComp
$Comp
L Device:D_Small D47
U 1 1 61A20374
P 16650 8100
F 0 "D47" V 16604 8170 50  0000 L CNN
F 1 "D_Small" V 16695 8170 50  0000 L CNN
F 2 "Diode_THT:D_DO-15_P3.81mm_Vertical_AnodeUp" V 16650 8100 50  0001 C CNN
F 3 "~" V 16650 8100 50  0001 C CNN
	1    16650 8100
	0    1    1    0   
$EndComp
$Comp
L acheronSymbols:MXSwitch SW48
U 1 1 61A2036E
P 16650 8550
F 0 "SW48" H 16600 8550 50  0000 L CNN
F 1 "P" H 16500 8500 39  0000 L CNN
F 2 "Button_Switch_Keyboard:SW_Cherry_MX_1.00u_PCB" H 16650 8550 50  0001 C CNN
F 3 "" H 16650 8550 50  0001 C CNN
	1    16650 8550
	1    0    0    -1  
$EndComp
$Comp
L Device:D_Small D43
U 1 1 61A20368
P 15750 8100
F 0 "D43" V 15704 8170 50  0000 L CNN
F 1 "D_Small" V 15795 8170 50  0000 L CNN
F 2 "Diode_THT:D_DO-15_P3.81mm_Vertical_AnodeUp" V 15750 8100 50  0001 C CNN
F 3 "~" V 15750 8100 50  0001 C CNN
	1    15750 8100
	0    1    1    0   
$EndComp
$Comp
L acheronSymbols:MXSwitch SW44
U 1 1 61A20362
P 15750 8550
F 0 "SW44" H 15700 8550 50  0000 L CNN
F 1 "O" H 15600 8500 39  0000 L CNN
F 2 "Button_Switch_Keyboard:SW_Cherry_MX_1.00u_PCB" H 15750 8550 50  0001 C CNN
F 3 "" H 15750 8550 50  0001 C CNN
	1    15750 8550
	1    0    0    -1  
$EndComp
$Comp
L Device:D_Small D39
U 1 1 61A2035C
P 14850 8100
F 0 "D39" V 14804 8170 50  0000 L CNN
F 1 "D_Small" V 14895 8170 50  0000 L CNN
F 2 "Diode_THT:D_DO-15_P3.81mm_Vertical_AnodeUp" V 14850 8100 50  0001 C CNN
F 3 "~" V 14850 8100 50  0001 C CNN
	1    14850 8100
	0    1    1    0   
$EndComp
$Comp
L acheronSymbols:MXSwitch SW40
U 1 1 61A20356
P 14850 8550
F 0 "SW40" H 14800 8550 50  0000 L CNN
F 1 "I" H 14700 8500 39  0000 L CNN
F 2 "Button_Switch_Keyboard:SW_Cherry_MX_1.00u_PCB" H 14850 8550 50  0001 C CNN
F 3 "" H 14850 8550 50  0001 C CNN
	1    14850 8550
	1    0    0    -1  
$EndComp
$Comp
L Device:D_Small D34
U 1 1 61A20350
P 14000 8100
F 0 "D34" V 13954 8170 50  0000 L CNN
F 1 "D_Small" V 14045 8170 50  0000 L CNN
F 2 "Diode_THT:D_DO-15_P3.81mm_Vertical_AnodeUp" V 14000 8100 50  0001 C CNN
F 3 "~" V 14000 8100 50  0001 C CNN
	1    14000 8100
	0    1    1    0   
$EndComp
$Comp
L acheronSymbols:MXSwitch SW35
U 1 1 61A2034A
P 14000 8550
F 0 "SW35" H 13950 8550 50  0000 L CNN
F 1 "U" H 13850 8500 39  0000 L CNN
F 2 "Button_Switch_Keyboard:SW_Cherry_MX_1.00u_PCB" H 14000 8550 50  0001 C CNN
F 3 "" H 14000 8550 50  0001 C CNN
	1    14000 8550
	1    0    0    -1  
$EndComp
$Comp
L Device:D_Small D30
U 1 1 61A20344
P 13150 8100
F 0 "D30" V 13104 8170 50  0000 L CNN
F 1 "D_Small" V 13195 8170 50  0000 L CNN
F 2 "Diode_THT:D_DO-15_P3.81mm_Vertical_AnodeUp" V 13150 8100 50  0001 C CNN
F 3 "~" V 13150 8100 50  0001 C CNN
	1    13150 8100
	0    1    1    0   
$EndComp
$Comp
L acheronSymbols:MXSwitch SW31
U 1 1 61A2033E
P 13150 8550
F 0 "SW31" H 13100 8550 50  0000 L CNN
F 1 "Y" H 13000 8500 39  0000 L CNN
F 2 "Button_Switch_Keyboard:SW_Cherry_MX_1.00u_PCB" H 13150 8550 50  0001 C CNN
F 3 "" H 13150 8550 50  0001 C CNN
	1    13150 8550
	1    0    0    -1  
$EndComp
$Comp
L Device:D_Small D26
U 1 1 61A20338
P 12400 8100
F 0 "D26" V 12354 8170 50  0000 L CNN
F 1 "D_Small" V 12445 8170 50  0000 L CNN
F 2 "Diode_THT:D_DO-15_P3.81mm_Vertical_AnodeUp" V 12400 8100 50  0001 C CNN
F 3 "~" V 12400 8100 50  0001 C CNN
	1    12400 8100
	0    1    1    0   
$EndComp
$Comp
L acheronSymbols:MXSwitch SW27
U 1 1 61A20332
P 12400 8550
F 0 "SW27" H 12350 8550 50  0000 L CNN
F 1 "T" H 12250 8500 39  0000 L CNN
F 2 "Button_Switch_Keyboard:SW_Cherry_MX_1.00u_PCB" H 12400 8550 50  0001 C CNN
F 3 "" H 12400 8550 50  0001 C CNN
	1    12400 8550
	1    0    0    -1  
$EndComp
$Comp
L Device:D_Small D22
U 1 1 61A2032C
P 11550 8100
F 0 "D22" V 11504 8170 50  0000 L CNN
F 1 "D_Small" V 11595 8170 50  0000 L CNN
F 2 "Diode_THT:D_DO-15_P3.81mm_Vertical_AnodeUp" V 11550 8100 50  0001 C CNN
F 3 "~" V 11550 8100 50  0001 C CNN
	1    11550 8100
	0    1    1    0   
$EndComp
$Comp
L acheronSymbols:MXSwitch SW23
U 1 1 61A20326
P 11550 8550
F 0 "SW23" H 11500 8550 50  0000 L CNN
F 1 "R" H 11400 8500 39  0000 L CNN
F 2 "Button_Switch_Keyboard:SW_Cherry_MX_1.00u_PCB" H 11550 8550 50  0001 C CNN
F 3 "" H 11550 8550 50  0001 C CNN
	1    11550 8550
	1    0    0    -1  
$EndComp
$Comp
L Device:D_Small D17
U 1 1 61A20320
P 10650 8100
F 0 "D17" V 10604 8170 50  0000 L CNN
F 1 "D_Small" V 10695 8170 50  0000 L CNN
F 2 "Diode_THT:D_DO-15_P3.81mm_Vertical_AnodeUp" V 10650 8100 50  0001 C CNN
F 3 "~" V 10650 8100 50  0001 C CNN
	1    10650 8100
	0    1    1    0   
$EndComp
$Comp
L Device:D_Small D12
U 1 1 61A20314
P 9750 8100
F 0 "D12" V 9704 8170 50  0000 L CNN
F 1 "D_Small" V 9795 8170 50  0000 L CNN
F 2 "Diode_THT:D_DO-15_P3.81mm_Vertical_AnodeUp" V 9750 8100 50  0001 C CNN
F 3 "~" V 9750 8100 50  0001 C CNN
	1    9750 8100
	0    1    1    0   
$EndComp
$Comp
L acheronSymbols:MXSwitch SW13
U 1 1 61A2030E
P 9750 8550
F 0 "SW13" H 9700 8550 50  0000 L CNN
F 1 "W" H 9600 8500 39  0000 L CNN
F 2 "Button_Switch_Keyboard:SW_Cherry_MX_1.00u_PCB" H 9750 8550 50  0001 C CNN
F 3 "" H 9750 8550 50  0001 C CNN
	1    9750 8550
	1    0    0    -1  
$EndComp
$Comp
L Device:D_Small D7
U 1 1 61A20308
P 8900 8100
F 0 "D7" V 8854 8170 50  0000 L CNN
F 1 "D_Small" V 8945 8170 50  0000 L CNN
F 2 "Diode_THT:D_DO-15_P3.81mm_Vertical_AnodeUp" V 8900 8100 50  0001 C CNN
F 3 "~" V 8900 8100 50  0001 C CNN
	1    8900 8100
	0    1    1    0   
$EndComp
$Comp
L acheronSymbols:MXSwitch SW8
U 1 1 61A20302
P 8900 8550
F 0 "SW8" H 8850 8550 50  0000 L CNN
F 1 "Q" H 8750 8500 39  0000 L CNN
F 2 "Button_Switch_Keyboard:SW_Cherry_MX_1.00u_PCB" H 8900 8550 50  0001 C CNN
F 3 "" H 8900 8550 50  0001 C CNN
	1    8900 8550
	1    0    0    -1  
$EndComp
Wire Wire Line
	7700 7350 7700 12050
Wire Wire Line
	7200 8000 8900 8000
Wire Wire Line
	12800 7300 12800 7350
Wire Wire Line
	6650 10350 7200 10350
Wire Wire Line
	12800 6500 12800 7350
Connection ~ 7200 10350
Wire Wire Line
	7200 10350 8900 10350
Wire Wire Line
	8550 6500 8550 7350
Connection ~ 8550 7350
Wire Wire Line
	8550 7350 8550 8550
Connection ~ 8900 10350
Wire Wire Line
	8550 10900 8550 12050
Connection ~ 8550 10900
Connection ~ 8550 8550
Connection ~ 8900 8000
Wire Wire Line
	8900 8000 9750 8000
Wire Wire Line
	9400 6500 9400 7350
Wire Wire Line
	9400 10900 9400 12050
Connection ~ 9400 10900
Wire Wire Line
	9400 8550 9400 7350
Connection ~ 9400 8550
Connection ~ 9400 7350
Wire Wire Line
	8900 10350 9750 10350
Wire Wire Line
	7200 9200 8900 9200
Connection ~ 7200 9200
Connection ~ 8550 9750
Wire Wire Line
	8550 9750 8550 10900
Connection ~ 8900 9200
Wire Wire Line
	8900 9200 9750 9200
Wire Wire Line
	8550 8550 8550 9750
Connection ~ 9400 9750
Wire Wire Line
	9400 9750 9400 10900
Wire Wire Line
	9400 8550 9400 9750
Connection ~ 12800 9750
Connection ~ 13150 9200
Connection ~ 9750 9200
Connection ~ 9750 10350
Connection ~ 9750 8000
Connection ~ 9750 11500
Connection ~ 13150 11500
Wire Wire Line
	9750 9200 10650 9200
Wire Wire Line
	9750 10350 10650 10350
Wire Wire Line
	9750 8000 10650 8000
$Comp
L acheronSymbols:MXSwitch SW18
U 1 1 61A2031A
P 10650 8550
F 0 "SW18" H 10600 8550 50  0000 L CNN
F 1 "E" H 10500 8500 39  0000 L CNN
F 2 "Button_Switch_Keyboard:SW_Cherry_MX_1.00u_PCB" H 10650 8550 50  0001 C CNN
F 3 "" H 10650 8550 50  0001 C CNN
	1    10650 8550
	1    0    0    -1  
$EndComp
Wire Wire Line
	9750 11500 13150 11500
Wire Wire Line
	10300 6500 10300 7350
$Comp
L acheronSymbols:MXSwitch SW22
U 1 1 618CB96C
P 10650 7350
F 0 "SW22" H 10600 7350 50  0000 L CNN
F 1 "4" H 10500 7300 39  0000 L CNN
F 2 "Button_Switch_Keyboard:SW_Cherry_MX_1.00u_PCB" H 10650 7350 50  0001 C CNN
F 3 "" H 10650 7350 50  0001 C CNN
	1    10650 7350
	1    0    0    -1  
$EndComp
$Comp
L acheronSymbols:MXSwitch SW20
U 1 1 61A32CCC
P 10650 10900
F 0 "SW20" H 10600 10900 50  0000 L CNN
F 1 "C" H 10500 10850 39  0000 L CNN
F 2 "Button_Switch_Keyboard:SW_Cherry_MX_1.00u_PCB" H 10650 10900 50  0001 C CNN
F 3 "" H 10650 10900 50  0001 C CNN
	1    10650 10900
	1    0    0    -1  
$EndComp
$Comp
L acheronSymbols:MXSwitch SW19
U 1 1 61A2ACC2
P 10650 9750
F 0 "SW19" H 10600 9750 50  0000 L CNN
F 1 "D" H 10500 9700 39  0000 L CNN
F 2 "Button_Switch_Keyboard:SW_Cherry_MX_1.00u_PCB" H 10650 9750 50  0001 C CNN
F 3 "" H 10650 9750 50  0001 C CNN
	1    10650 9750
	1    0    0    -1  
$EndComp
Connection ~ 10300 7350
Connection ~ 10650 10350
Wire Wire Line
	10650 10350 11550 10350
Wire Wire Line
	10300 7350 10300 8550
Connection ~ 10300 9750
Wire Wire Line
	10300 9750 10300 10900
Connection ~ 10650 9200
Connection ~ 10300 8550
Wire Wire Line
	10300 8550 10300 9750
Connection ~ 10650 8000
Wire Wire Line
	10650 8000 11550 8000
Connection ~ 11550 8000
Wire Wire Line
	11550 8000 12400 8000
Wire Wire Line
	11200 7350 11200 8550
Connection ~ 11200 7350
Connection ~ 11550 9200
Wire Wire Line
	10650 9200 11550 9200
Wire Wire Line
	11200 8550 11200 9750
Connection ~ 11200 8550
Wire Wire Line
	11200 9750 11200 10900
Connection ~ 11200 9750
Connection ~ 11550 10350
Wire Wire Line
	11550 10350 12400 10350
Wire Wire Line
	11550 9200 12400 9200
Wire Wire Line
	12050 7350 12050 8550
Connection ~ 12050 7350
Connection ~ 12050 8550
Wire Wire Line
	12050 8550 12050 9750
Connection ~ 12400 8000
Wire Wire Line
	12400 8000 13150 8000
Connection ~ 12050 9750
Connection ~ 12400 9200
Wire Wire Line
	12400 9200 13150 9200
Connection ~ 12400 10350
Wire Wire Line
	12400 10350 13150 10350
Wire Wire Line
	12050 9750 12050 10900
Connection ~ 13650 7350
Connection ~ 14000 10350
Wire Wire Line
	14000 10350 14850 10350
Wire Wire Line
	13650 7350 13650 8550
Connection ~ 13650 9750
Wire Wire Line
	13650 9750 13650 10900
Connection ~ 14000 9200
Wire Wire Line
	13150 9200 14000 9200
Connection ~ 13650 8550
Wire Wire Line
	13650 8550 13650 9750
Connection ~ 14000 8000
Wire Wire Line
	14000 8000 14850 8000
Connection ~ 14850 10350
Wire Wire Line
	14850 10350 15750 10350
Connection ~ 14850 9200
Wire Wire Line
	14000 9200 14850 9200
Connection ~ 14850 8000
Wire Wire Line
	14850 8000 15750 8000
Wire Wire Line
	14500 6500 14500 7350
Connection ~ 14500 7350
Wire Wire Line
	14500 7350 14500 8550
Connection ~ 14500 8550
Wire Wire Line
	14500 8550 14500 9750
Connection ~ 14500 9750
Wire Wire Line
	14500 9750 14500 10900
Connection ~ 15750 8000
Wire Wire Line
	15750 8000 16650 8000
Wire Wire Line
	14850 9200 15750 9200
Connection ~ 15750 9200
Wire Wire Line
	15400 6500 15400 7350
Connection ~ 15400 7350
Wire Wire Line
	15400 7350 15400 8550
Connection ~ 15400 8550
Wire Wire Line
	15400 8550 15400 9750
Connection ~ 15400 9750
Wire Wire Line
	16300 6500 16300 7350
Wire Wire Line
	16300 7350 16300 8550
Connection ~ 16300 7350
Connection ~ 16650 11500
Wire Wire Line
	16650 11500 17500 11500
Wire Wire Line
	13150 11500 16650 11500
Connection ~ 16300 10900
Wire Wire Line
	16300 10900 16300 12050
Connection ~ 16650 10350
Wire Wire Line
	16650 10350 17500 10350
Connection ~ 16300 9750
Wire Wire Line
	16300 9750 16300 10900
Connection ~ 16650 9200
Connection ~ 16300 8550
Wire Wire Line
	16300 8550 16300 9750
Connection ~ 16650 8000
Wire Wire Line
	16650 8000 17500 8000
Wire Wire Line
	15750 9200 16650 9200
Connection ~ 17500 8000
Wire Wire Line
	17500 8000 18300 8000
Wire Wire Line
	17150 6500 17150 7350
Connection ~ 17150 7350
Wire Wire Line
	17150 7350 17150 8550
Connection ~ 17150 8550
Wire Wire Line
	17150 8550 17150 9750
Connection ~ 17150 9750
Wire Wire Line
	17150 9750 17150 10900
Connection ~ 17500 9200
Wire Wire Line
	16650 9200 17500 9200
Connection ~ 17150 10900
Wire Wire Line
	17150 10900 17150 12050
Connection ~ 17500 10350
Wire Wire Line
	17950 7350 17950 8550
Connection ~ 17950 7350
Connection ~ 17950 10900
Wire Wire Line
	17950 10900 17950 12050
Connection ~ 17950 9750
Wire Wire Line
	17950 9750 17950 10900
Connection ~ 17950 8550
Wire Wire Line
	17950 8550 17950 9750
Wire Wire Line
	17500 10350 18300 10350
Wire Wire Line
	19150 8000 18300 8000
Connection ~ 18300 8000
Wire Wire Line
	17500 11500 18300 11500
Connection ~ 18300 11500
Wire Wire Line
	18300 11500 19150 11500
Wire Wire Line
	18800 8550 18800 12050
Connection ~ 18800 8550
Text GLabel 18800 6500 1    50   Input ~ 0
Col15
Wire Wire Line
	18800 6500 18800 8550
Connection ~ 12800 10900
Wire Wire Line
	12800 10900 12800 12050
Connection ~ 13150 10350
Wire Wire Line
	13150 10350 14000 10350
Wire Wire Line
	12800 9750 12800 10900
Wire Wire Line
	17500 9200 18300 9200
$Comp
L Device:D_Small D62
U 1 1 61A2AD40
P 18300 9300
F 0 "D62" V 18254 9370 50  0000 L CNN
F 1 "D_Small" V 18345 9370 50  0000 L CNN
F 2 "Diode_THT:D_DO-15_P3.81mm_Vertical_AnodeUp" V 18300 9300 50  0001 C CNN
F 3 "~" V 18300 9300 50  0001 C CNN
	1    18300 9300
	0    1    1    0   
$EndComp
Connection ~ 15750 10350
Wire Wire Line
	15750 10350 16650 10350
Wire Wire Line
	15400 9750 15400 10900
Connection ~ 12800 8550
Wire Wire Line
	12800 8550 12800 9750
Connection ~ 13150 8000
Wire Wire Line
	13150 8000 14000 8000
Wire Wire Line
	12800 7350 12800 8550
$Comp
L Device:R_Small R8
U 1 1 6355DA8C
P 1950 1600
F 0 "R8" V 1754 1600 50  0000 C CNN
F 1 "5.1k" V 1950 1600 50  0000 C CNN
F 2 "Resistor_SMD:R_1206_3216Metric" H 1950 1600 50  0001 C CNN
F 3 "~" H 1950 1600 50  0001 C CNN
	1    1950 1600
	0    1    1    0   
$EndComp
Wire Wire Line
	2100 1600 2050 1600
$Comp
L Connector:USB_C_Receptacle_USB2.0 J1
U 1 1 6357057F
P 1100 1900
F 0 "J1" H 1207 2767 50  0000 C CNN
F 1 "USB_C_Receptacle_USB2.0" H 1207 2676 50  0000 C CNN
F 2 "Connector_USB:USB_C_Receptacle_GCT_USB4085" H 1250 1900 50  0001 C CNN
F 3 "https://www.usb.org/sites/default/files/documents/usb_type-c.zip" H 1250 1900 50  0001 C CNN
	1    1100 1900
	1    0    0    -1  
$EndComp
Connection ~ 800  2800
Wire Wire Line
	1700 2100 1800 2100
Wire Wire Line
	1800 2100 1800 2000
Connection ~ 1800 2000
Wire Wire Line
	1800 2000 1850 2000
Wire Wire Line
	1700 1900 1800 1900
Wire Wire Line
	1800 1900 1800 1800
Connection ~ 1800 1800
Wire Wire Line
	1800 1800 1850 1800
$Comp
L power:GND #PWR02
U 1 1 63615852
P 5150 1950
F 0 "#PWR02" H 5150 1700 50  0001 C CNN
F 1 "GND" H 5155 1777 50  0000 C CNN
F 2 "" H 5150 1950 50  0001 C CNN
F 3 "" H 5150 1950 50  0001 C CNN
	1    5150 1950
	1    0    0    -1  
$EndComp
$Comp
L power:GND #PWR03
U 1 1 63616ED0
P 1100 2850
F 0 "#PWR03" H 1100 2600 50  0001 C CNN
F 1 "GND" H 1105 2677 50  0000 C CNN
F 2 "" H 1100 2850 50  0001 C CNN
F 3 "" H 1100 2850 50  0001 C CNN
	1    1100 2850
	1    0    0    -1  
$EndComp
$Comp
L power:GND #PWR01
U 1 1 63618D3C
P 600 3100
F 0 "#PWR01" H 600 2850 50  0001 C CNN
F 1 "GND" H 605 2927 50  0000 C CNN
F 2 "" H 600 3100 50  0001 C CNN
F 3 "" H 600 3100 50  0001 C CNN
	1    600  3100
	1    0    0    -1  
$EndComp
$Comp
L power:GND #PWR012
U 1 1 6361C3F3
P 2100 1600
F 0 "#PWR012" H 2100 1350 50  0001 C CNN
F 1 "GND" V 2105 1472 50  0000 R CNN
F 2 "" H 2100 1600 50  0001 C CNN
F 3 "" H 2100 1600 50  0001 C CNN
	1    2100 1600
	0    -1   -1   0   
$EndComp
$Comp
L power:GND #PWR010
U 1 1 6361E35C
P 2100 1500
F 0 "#PWR010" H 2100 1250 50  0001 C CNN
F 1 "GND" V 2105 1372 50  0000 R CNN
F 2 "" H 2100 1500 50  0001 C CNN
F 3 "" H 2100 1500 50  0001 C CNN
	1    2100 1500
	0    -1   -1   0   
$EndComp
$Comp
L power:GND #PWR013
U 1 1 6361F53F
P 2600 3650
F 0 "#PWR013" H 2600 3400 50  0001 C CNN
F 1 "GND" H 2605 3477 50  0000 C CNN
F 2 "" H 2600 3650 50  0001 C CNN
F 3 "" H 2600 3650 50  0001 C CNN
	1    2600 3650
	1    0    0    -1  
$EndComp
$Comp
L power:GND #PWR015
U 1 1 63621D6E
P 2700 7600
F 0 "#PWR015" H 2700 7350 50  0001 C CNN
F 1 "GND" H 2705 7427 50  0000 C CNN
F 2 "" H 2700 7600 50  0001 C CNN
F 3 "" H 2700 7600 50  0001 C CNN
	1    2700 7600
	1    0    0    -1  
$EndComp
$Comp
L power:GND #PWR016
U 1 1 63625447
P 3550 6250
F 0 "#PWR016" H 3550 6000 50  0001 C CNN
F 1 "GND" V 3555 6122 50  0000 R CNN
F 2 "" H 3550 6250 50  0001 C CNN
F 3 "" H 3550 6250 50  0001 C CNN
	1    3550 6250
	0    -1   -1   0   
$EndComp
$Comp
L Device:C_Small C10
U 1 1 63658170
P 3050 3450
F 0 "C10" H 2958 3404 50  0001 R CNN
F 1 "1uF" H 2958 3495 50  0001 R CNN
F 2 "Capacitor_SMD:C_0805_2012Metric" H 3050 3450 50  0001 C CNN
F 3 "~" H 3050 3450 50  0001 C CNN
	1    3050 3450
	-1   0    0    1   
$EndComp
Wire Wire Line
	2900 3550 2900 3600
Wire Wire Line
	2900 3600 2750 3600
Connection ~ 2750 3600
$Comp
L Device:C_Small C4
U 1 1 61835E9D
P 5150 1800
F 0 "C4" H 5242 1846 50  0000 L CNN
F 1 "100n" H 5242 1755 50  0000 L CNN
F 2 "Capacitor_SMD:C_0805_2012Metric" H 5150 1800 50  0001 C CNN
F 3 "~" H 5150 1800 50  0001 C CNN
	1    5150 1800
	1    0    0    1   
$EndComp
Wire Wire Line
	4900 1800 4900 2150
Wire Wire Line
	5150 1900 5150 1950
$Comp
L power:GND #PWR0102
U 1 1 6193F7EE
P 4900 2400
F 0 "#PWR0102" H 4900 2150 50  0001 C CNN
F 1 "GND" H 4905 2227 50  0000 C CNN
F 2 "" H 4900 2400 50  0001 C CNN
F 3 "" H 4900 2400 50  0001 C CNN
	1    4900 2400
	1    0    0    -1  
$EndComp
Text GLabel 3350 5450 2    50   Input ~ 0
Col6
Text GLabel 3350 5350 2    50   Input ~ 0
Col5
$Comp
L power:+5V #PWR08
U 1 1 618215AD
P 1700 4950
F 0 "#PWR08" H 1700 4800 50  0001 C CNN
F 1 "+5V" V 1715 5078 50  0000 L CNN
F 2 "" H 1700 4950 50  0001 C CNN
F 3 "" H 1700 4950 50  0001 C CNN
	1    1700 4950
	0    -1   -1   0   
$EndComp
$Comp
L power:GND #PWR07
U 1 1 6360FD1D
P 1650 5450
F 0 "#PWR07" H 1650 5200 50  0001 C CNN
F 1 "GND" V 1655 5322 50  0000 R CNN
F 2 "" H 1650 5450 50  0001 C CNN
F 3 "" H 1650 5450 50  0001 C CNN
	1    1650 5450
	0    1    1    0   
$EndComp
$Comp
L power:GND #PWR04
U 1 1 63615613
P 1200 4350
F 0 "#PWR04" H 1200 4100 50  0001 C CNN
F 1 "GND" V 1205 4222 50  0000 R CNN
F 2 "" H 1200 4350 50  0001 C CNN
F 3 "" H 1200 4350 50  0001 C CNN
	1    1200 4350
	0    1    1    0   
$EndComp
$Comp
L power:GND #PWR05
U 1 1 63611882
P 1200 4550
F 0 "#PWR05" H 1200 4300 50  0001 C CNN
F 1 "GND" V 1205 4422 50  0000 R CNN
F 2 "" H 1200 4550 50  0001 C CNN
F 3 "" H 1200 4550 50  0001 C CNN
	1    1200 4550
	0    1    1    0   
$EndComp
Wire Wire Line
	1500 4550 1650 4550
Wire Wire Line
	1500 4350 1650 4350
Wire Wire Line
	1200 4350 1300 4350
Wire Wire Line
	1300 4550 1200 4550
$Comp
L Device:C_Small C3
U 1 1 6182754D
P 1400 4550
F 0 "C3" V 1629 4550 50  0000 C CNN
F 1 "22pF" V 1538 4550 50  0000 C CNN
F 2 "Capacitor_SMD:C_0805_2012Metric" H 1400 4550 50  0001 C CNN
F 3 "~" H 1400 4550 50  0001 C CNN
	1    1400 4550
	0    -1   -1   0   
$EndComp
$Comp
L Device:C_Small C2
U 1 1 61826E67
P 1400 4350
F 0 "C2" V 1629 4350 50  0000 C CNN
F 1 "22pF" V 1538 4350 50  0000 C CNN
F 2 "Capacitor_SMD:C_0805_2012Metric" H 1400 4350 50  0001 C CNN
F 3 "~" H 1400 4350 50  0001 C CNN
	1    1400 4350
	0    -1   -1   0   
$EndComp
$Comp
L Device:Crystal_Small Y1
U 1 1 61823381
P 1650 4450
F 0 "Y1" V 1604 4538 50  0000 L CNN
F 1 "16Mz" V 1695 4538 50  0000 L CNN
F 2 "Crystal:Crystal_SMD_5032-2Pin_5.0x3.2mm" H 1650 4450 50  0001 C CNN
F 3 "~" H 1650 4450 50  0001 C CNN
	1    1650 4450
	0    1    1    0   
$EndComp
Connection ~ 1650 4550
Connection ~ 1650 4350
$Comp
L power:+5V #PWR0101
U 1 1 6366C826
P 2150 4750
F 0 "#PWR0101" H 2150 4600 50  0001 C CNN
F 1 "+5V" V 2165 4878 50  0000 L CNN
F 2 "" H 2150 4750 50  0001 C CNN
F 3 "" H 2150 4750 50  0001 C CNN
	1    2150 4750
	0    -1   -1   0   
$EndComp
Text GLabel 2150 5250 0    50   Input ~ 0
DN
Text GLabel 2150 5150 0    50   Input ~ 0
DP
Text GLabel 2150 4150 0    50   Input ~ 0
RST
Wire Wire Line
	1650 4550 2150 4550
Wire Wire Line
	1650 4350 2150 4350
Wire Wire Line
	1700 4950 2150 4950
Wire Wire Line
	2050 5450 2150 5450
Wire Wire Line
	1650 5450 1850 5450
$Comp
L Device:C_Small C5
U 1 1 6181B30D
P 1950 5450
F 0 "C5" V 1721 5450 50  0000 C CNN
F 1 "1u" V 1812 5450 50  0000 C CNN
F 2 "Capacitor_SMD:C_0805_2012Metric" H 1950 5450 50  0001 C CNN
F 3 "~" H 1950 5450 50  0001 C CNN
	1    1950 5450
	0    1    1    0   
$EndComp
$Comp
L Device:D_Small D57
U 1 1 6276A8F9
P 3450 6950
F 0 "D57" H 3450 7157 50  0001 C CNN
F 1 "D_Small" H 3450 7066 50  0001 C CNN
F 2 "Diode_THT:D_DO-15_P3.81mm_Vertical_AnodeUp" V 3450 6950 50  0001 C CNN
F 3 "~" V 3450 6950 50  0001 C CNN
	1    3450 6950
	1    0    0    -1  
$EndComp
Text GLabel 3550 6950 2    50   Input ~ 0
Row1
$Comp
L Device:D_Small D58
U 1 1 6276BB39
P 3450 6650
F 0 "D58" H 3450 6857 50  0001 C CNN
F 1 "D_Small" H 3450 6650 50  0001 C CNN
F 2 "Diode_THT:D_DO-15_P3.81mm_Vertical_AnodeUp" V 3450 6650 50  0001 C CNN
F 3 "~" V 3450 6650 50  0001 C CNN
	1    3450 6650
	1    0    0    -1  
$EndComp
Text GLabel 3550 6650 2    50   Input ~ 0
Row2
Text GLabel 3350 4650 2    50   Input ~ 0
Col15
$Comp
L Device:D_Small D68
U 1 1 6276C385
P 3450 5150
F 0 "D68" H 3450 5357 50  0001 C CNN
F 1 "D_Small" H 3450 5266 50  0001 C CNN
F 2 "Diode_THT:D_DO-15_P3.81mm_Vertical_AnodeUp" V 3450 5150 50  0001 C CNN
F 3 "~" V 3450 5150 50  0001 C CNN
	1    3450 5150
	1    0    0    -1  
$EndComp
Text GLabel 3550 5150 2    50   Input ~ 0
Row5
Text GLabel 3350 4350 2    50   Input ~ 0
Col2
Text GLabel 3350 6850 2    50   Input ~ 0
Col14
$Comp
L Device:D_Small D65
U 1 1 6276C033
P 3450 7050
F 0 "D65" H 3450 7257 50  0001 C CNN
F 1 "D_Small" H 3450 7166 50  0001 C CNN
F 2 "Diode_THT:D_DO-15_P3.81mm_Vertical_AnodeUp" V 3450 7050 50  0001 C CNN
F 3 "~" V 3450 7050 50  0001 C CNN
	1    3450 7050
	1    0    0    -1  
$EndComp
Text GLabel 3550 7050 2    50   Input ~ 0
Row4
Text GLabel 3350 4450 2    50   Input ~ 0
Col3
Text GLabel 3350 6750 2    50   Input ~ 0
Col13
$Comp
L Device:D_Small D60
U 1 1 6276BDC9
P 3450 4750
F 0 "D60" H 3450 4957 50  0001 C CNN
F 1 "D_Small" H 3450 4866 50  0001 C CNN
F 2 "Diode_THT:D_DO-15_P3.81mm_Vertical_AnodeUp" V 3450 4750 50  0001 C CNN
F 3 "~" V 3450 4750 50  0001 C CNN
	1    3450 4750
	1    0    0    -1  
$EndComp
Text GLabel 3550 4750 2    50   Input ~ 0
Row3
Text GLabel 3350 4550 2    50   Input ~ 0
Col11
$Comp
L MCU_Microchip_ATmega:ATmega32U4-MU U1
U 1 1 6180E23A
P 2750 5650
F 0 "U1" H 2700 4300 50  0000 C CNN
F 1 "ATmega32U4-MU" H 2750 4400 50  0000 C CNN
F 2 "Package_DFN_QFN:QFN-44-1EP_7x7mm_P0.5mm_EP5.2x5.2mm" H 2750 5650 50  0001 C CIN
F 3 "http://ww1.microchip.com/downloads/en/DeviceDoc/Atmel-7766-8-bit-AVR-ATmega16U4-32U4_Datasheet.pdf" H 2750 5650 50  0001 C CNN
	1    2750 5650
	1    0    0    -1  
$EndComp
Text GLabel 3350 6050 2    50   Input ~ 0
Col10
Text GLabel 3350 5750 2    50   Input ~ 0
Col9
$Comp
L Device:C_Small C11
U 1 1 63694AB6
P 2600 3450
F 0 "C11" H 2508 3404 50  0001 R CNN
F 1 "100nF" H 2508 3495 50  0001 R CNN
F 2 "Capacitor_SMD:C_0805_2012Metric" H 2600 3450 50  0001 C CNN
F 3 "~" H 2600 3450 50  0001 C CNN
	1    2600 3450
	-1   0    0    1   
$EndComp
Wire Wire Line
	2450 3600 2600 3600
Wire Wire Line
	2600 3600 2750 3600
Wire Wire Line
	2450 3350 2600 3350
Wire Wire Line
	2600 3350 2750 3350
Connection ~ 2750 3350
Wire Wire Line
	2750 3350 2900 3350
Wire Wire Line
	2900 3350 3050 3350
Connection ~ 2900 3350
Wire Wire Line
	3050 3550 3050 3600
Wire Wire Line
	3050 3600 2900 3600
Connection ~ 2900 3600
Wire Wire Line
	2600 3550 2600 3600
Wire Wire Line
	4900 2350 4900 2400
Connection ~ 5150 1400
Wire Wire Line
	5150 1400 5400 1400
Wire Wire Line
	4500 1400 4950 1400
Wire Wire Line
	5150 1400 5150 1700
Connection ~ 4950 1400
Wire Wire Line
	4950 1400 5150 1400
$Comp
L Mechanical:MountingHole H1
U 1 1 6192759A
P 5800 5200
F 0 "H1" H 5900 5246 50  0000 L CNN
F 1 "MountingHole" H 5900 5155 50  0000 L CNN
F 2 "MountingHole:MountingHole_3mm" H 5800 5200 50  0001 C CNN
F 3 "~" H 5800 5200 50  0001 C CNN
	1    5800 5200
	1    0    0    -1  
$EndComp
$Comp
L Mechanical:MountingHole H2
U 1 1 6192D668
P 5800 5450
F 0 "H2" H 5900 5496 50  0000 L CNN
F 1 "MountingHole" H 5900 5405 50  0000 L CNN
F 2 "MountingHole:MountingHole_3mm" H 5800 5450 50  0001 C CNN
F 3 "~" H 5800 5450 50  0001 C CNN
	1    5800 5450
	1    0    0    -1  
$EndComp
$Comp
L Mechanical:MountingHole H3
U 1 1 6192D974
P 5800 5750
F 0 "H3" H 5900 5796 50  0000 L CNN
F 1 "MountingHole" H 5900 5705 50  0000 L CNN
F 2 "MountingHole:MountingHole_3mm" H 5800 5750 50  0001 C CNN
F 3 "~" H 5800 5750 50  0001 C CNN
	1    5800 5750
	1    0    0    -1  
$EndComp
$Comp
L Mechanical:MountingHole H4
U 1 1 6192DBB5
P 5800 6050
F 0 "H4" H 5900 6096 50  0000 L CNN
F 1 "MountingHole" H 5900 6005 50  0000 L CNN
F 2 "MountingHole:MountingHole_3mm" H 5800 6050 50  0001 C CNN
F 3 "~" H 5800 6050 50  0001 C CNN
	1    5800 6050
	1    0    0    -1  
$EndComp
$Comp
L Mechanical:MountingHole H5
U 1 1 61942C54
P 5800 6300
F 0 "H5" H 5900 6346 50  0000 L CNN
F 1 "MountingHole" H 5900 6255 50  0000 L CNN
F 2 "MountingHole:MountingHole_3mm" H 5800 6300 50  0001 C CNN
F 3 "~" H 5800 6300 50  0001 C CNN
	1    5800 6300
	1    0    0    -1  
$EndComp
$Comp
L Mechanical:MountingHole H6
U 1 1 61942F5A
P 5800 6550
F 0 "H6" H 5900 6596 50  0000 L CNN
F 1 "MountingHole" H 5900 6505 50  0000 L CNN
F 2 "MountingHole:MountingHole_3mm" H 5800 6550 50  0001 C CNN
F 3 "~" H 5800 6550 50  0001 C CNN
	1    5800 6550
	1    0    0    -1  
$EndComp
$EndSCHEMATC
